EESchema Schematic File Version 4
EELAYER 30 0
EELAYER END
$Descr A4 11693 8268
encoding utf-8
Sheet 1 1
Title "GameBoard"
Date ""
Rev "1.0"
Comp "Aquari"
Comment1 ""
Comment2 ""
Comment3 ""
Comment4 ""
$EndDescr
$Comp
L MCU_Microchip_SAMD:ATSAMD21E16B-A U2
U 1 1 5F231408
P 10250 3850
F 0 "U2" H 10200 3950 50  0000 L CNN
F 1 "ATSAMD21E16B-A" H 9950 3850 50  0000 L CNN
F 2 "Package_QFP:TQFP-32_7x7mm_P0.8mm" H 11150 2000 50  0001 C CNN
F 3 "http://ww1.microchip.com/downloads/en/DeviceDoc/SAM_D21_DA1_Family_Data%20Sheet_DS40001882E.pdf" H 10250 3850 50  0001 C CNN
	1    10250 3850
	1    0    0    -1  
$EndComp
Wire Wire Line
	9550 4650 9200 4650
Wire Wire Line
	9550 4750 9200 4750
Text Label 9200 4650 0    50   ~ 0
D-
Text Label 9200 4750 0    50   ~ 0
D+
$Comp
L power:GND #PWR022
U 1 1 5F237F82
P 10250 5750
F 0 "#PWR022" H 10250 5500 50  0001 C CNN
F 1 "GND" H 10255 5577 50  0000 C CNN
F 2 "" H 10250 5750 50  0001 C CNN
F 3 "" H 10250 5750 50  0001 C CNN
	1    10250 5750
	1    0    0    -1  
$EndComp
$Comp
L 74xx:74HC4051 U1
U 1 1 5F23912D
P 1150 1450
F 0 "U1" V 1150 1400 50  0000 C CNN
F 1 "74HC4051" V 1250 1400 50  0000 C CNN
F 2 "" H 1150 1050 50  0001 C CNN
F 3 "http://www.ti.com/lit/ds/symlink/cd74hc4051.pdf" H 1150 1050 50  0001 C CNN
	1    1150 1450
	1    0    0    -1  
$EndComp
Wire Wire Line
	9550 4150 9200 4150
Text Label 9200 3950 0    50   ~ 0
RS0
Wire Wire Line
	9550 3950 9200 3950
Text Label 9200 4150 0    50   ~ 0
RS2
Text Label 9200 4050 0    50   ~ 0
RS1
Wire Wire Line
	9550 4050 9200 4050
Wire Wire Line
	850  1350 600  1350
Wire Wire Line
	850  1450 600  1450
Wire Wire Line
	850  1550 600  1550
Text Label 600  1350 0    50   ~ 0
RS0
Text Label 600  1450 0    50   ~ 0
RS1
Text Label 600  1550 0    50   ~ 0
RS2
$Comp
L power:GND #PWR02
U 1 1 5F23E656
P 750 2050
F 0 "#PWR02" H 750 1800 50  0001 C CNN
F 1 "GND" H 755 1877 50  0000 C CNN
F 2 "" H 750 2050 50  0001 C CNN
F 3 "" H 750 2050 50  0001 C CNN
	1    750  2050
	1    0    0    -1  
$EndComp
Wire Wire Line
	850  1750 750  1750
Wire Wire Line
	750  1750 750  2050
$Comp
L power:GND #PWR07
U 1 1 5F23EB45
P 1150 2050
F 0 "#PWR07" H 1150 1800 50  0001 C CNN
F 1 "GND" H 1155 1877 50  0000 C CNN
F 2 "" H 1150 2050 50  0001 C CNN
F 3 "" H 1150 2050 50  0001 C CNN
	1    1150 2050
	1    0    0    -1  
$EndComp
NoConn ~ 1250 2050
$Comp
L Device:C_Small C2
U 1 1 5F242697
P 1400 850
F 0 "C2" V 1171 850 50  0000 C CNN
F 1 "10nF" V 1262 850 50  0000 C CNN
F 2 "" H 1400 850 50  0001 C CNN
F 3 "~" H 1400 850 50  0001 C CNN
	1    1400 850 
	0    1    1    0   
$EndComp
Wire Wire Line
	1150 850  1300 850 
Wire Wire Line
	1150 850  1150 950 
Wire Wire Line
	1500 850  1700 850 
$Comp
L power:GND #PWR08
U 1 1 5F244393
P 1700 850
F 0 "#PWR08" H 1700 600 50  0001 C CNN
F 1 "GND" H 1705 677 50  0000 C CNN
F 2 "" H 1700 850 50  0001 C CNN
F 3 "" H 1700 850 50  0001 C CNN
	1    1700 850 
	0    -1   -1   0   
$EndComp
$Comp
L Switch:SW_Push SW2
U 1 1 5F2454C9
P 2700 2350
F 0 "SW2" H 2700 2543 50  0000 C CNN
F 1 "SW_Push" H 2700 2544 50  0001 C CNN
F 2 "" H 2700 2550 50  0001 C CNN
F 3 "~" H 2700 2550 50  0001 C CNN
	1    2700 2350
	1    0    0    -1  
$EndComp
$Comp
L Device:D_Small D2
U 1 1 5F248312
P 3000 2350
F 0 "D2" H 3000 2235 50  0000 C CNN
F 1 "D_Small" H 3000 2234 50  0001 C CNN
F 2 "" V 3000 2350 50  0001 C CNN
F 3 "~" V 3000 2350 50  0001 C CNN
	1    3000 2350
	-1   0    0    1   
$EndComp
$Comp
L Switch:SW_Push SW3
U 1 1 5F24CD82
P 2700 2650
F 0 "SW3" H 2700 2843 50  0000 C CNN
F 1 "SW_Push" H 2700 2844 50  0001 C CNN
F 2 "" H 2700 2850 50  0001 C CNN
F 3 "~" H 2700 2850 50  0001 C CNN
	1    2700 2650
	1    0    0    -1  
$EndComp
$Comp
L Device:D_Small D3
U 1 1 5F24CD88
P 3000 2650
F 0 "D3" H 3000 2535 50  0000 C CNN
F 1 "D_Small" H 3000 2534 50  0001 C CNN
F 2 "" V 3000 2650 50  0001 C CNN
F 3 "~" V 3000 2650 50  0001 C CNN
	1    3000 2650
	-1   0    0    1   
$EndComp
$Comp
L Switch:SW_Push SW4
U 1 1 5F24D4B9
P 2700 2950
F 0 "SW4" H 2700 3143 50  0000 C CNN
F 1 "SW_Push" H 2700 3144 50  0001 C CNN
F 2 "" H 2700 3150 50  0001 C CNN
F 3 "~" H 2700 3150 50  0001 C CNN
	1    2700 2950
	1    0    0    -1  
$EndComp
$Comp
L Device:D_Small D4
U 1 1 5F24D4BF
P 3000 2950
F 0 "D4" H 3000 2835 50  0000 C CNN
F 1 "D_Small" H 3000 2834 50  0001 C CNN
F 2 "" V 3000 2950 50  0001 C CNN
F 3 "~" V 3000 2950 50  0001 C CNN
	1    3000 2950
	-1   0    0    1   
$EndComp
$Comp
L Switch:SW_Push SW5
U 1 1 5F24DE98
P 2700 3250
F 0 "SW5" H 2700 3443 50  0000 C CNN
F 1 "SW_Push" H 2700 3444 50  0001 C CNN
F 2 "" H 2700 3450 50  0001 C CNN
F 3 "~" H 2700 3450 50  0001 C CNN
	1    2700 3250
	1    0    0    -1  
$EndComp
$Comp
L Device:D_Small D5
U 1 1 5F24DE9E
P 3000 3250
F 0 "D5" H 3000 3135 50  0000 C CNN
F 1 "D_Small" H 3000 3134 50  0001 C CNN
F 2 "" V 3000 3250 50  0001 C CNN
F 3 "~" V 3000 3250 50  0001 C CNN
	1    3000 3250
	-1   0    0    1   
$EndComp
$Comp
L Switch:SW_Push SW6
U 1 1 5F24E88B
P 2700 3550
F 0 "SW6" H 2700 3743 50  0000 C CNN
F 1 "SW_Push" H 2700 3744 50  0001 C CNN
F 2 "" H 2700 3750 50  0001 C CNN
F 3 "~" H 2700 3750 50  0001 C CNN
	1    2700 3550
	1    0    0    -1  
$EndComp
$Comp
L Device:D_Small D6
U 1 1 5F24E891
P 3000 3550
F 0 "D6" H 3000 3435 50  0000 C CNN
F 1 "D_Small" H 3000 3434 50  0001 C CNN
F 2 "" V 3000 3550 50  0001 C CNN
F 3 "~" V 3000 3550 50  0001 C CNN
	1    3000 3550
	-1   0    0    1   
$EndComp
$Comp
L Switch:SW_Push SW9
U 1 1 5F253CA6
P 3700 2350
F 0 "SW9" H 3700 2543 50  0000 C CNN
F 1 "SW_Push" H 3700 2544 50  0001 C CNN
F 2 "" H 3700 2550 50  0001 C CNN
F 3 "~" H 3700 2550 50  0001 C CNN
	1    3700 2350
	1    0    0    -1  
$EndComp
$Comp
L Device:D_Small D9
U 1 1 5F253CAC
P 4000 2350
F 0 "D9" H 4000 2235 50  0000 C CNN
F 1 "D_Small" H 4000 2234 50  0001 C CNN
F 2 "" V 4000 2350 50  0001 C CNN
F 3 "~" V 4000 2350 50  0001 C CNN
	1    4000 2350
	-1   0    0    1   
$EndComp
$Comp
L Switch:SW_Push SW10
U 1 1 5F253CB2
P 3700 2650
F 0 "SW10" H 3700 2843 50  0000 C CNN
F 1 "SW_Push" H 3700 2844 50  0001 C CNN
F 2 "" H 3700 2850 50  0001 C CNN
F 3 "~" H 3700 2850 50  0001 C CNN
	1    3700 2650
	1    0    0    -1  
$EndComp
$Comp
L Device:D_Small D10
U 1 1 5F253CB8
P 4000 2650
F 0 "D10" H 4000 2535 50  0000 C CNN
F 1 "D_Small" H 4000 2534 50  0001 C CNN
F 2 "" V 4000 2650 50  0001 C CNN
F 3 "~" V 4000 2650 50  0001 C CNN
	1    4000 2650
	-1   0    0    1   
$EndComp
$Comp
L Switch:SW_Push SW11
U 1 1 5F253CBE
P 3700 2950
F 0 "SW11" H 3700 3143 50  0000 C CNN
F 1 "SW_Push" H 3700 3144 50  0001 C CNN
F 2 "" H 3700 3150 50  0001 C CNN
F 3 "~" H 3700 3150 50  0001 C CNN
	1    3700 2950
	1    0    0    -1  
$EndComp
$Comp
L Device:D_Small D11
U 1 1 5F253CC4
P 4000 2950
F 0 "D11" H 4000 2835 50  0000 C CNN
F 1 "D_Small" H 4000 2834 50  0001 C CNN
F 2 "" V 4000 2950 50  0001 C CNN
F 3 "~" V 4000 2950 50  0001 C CNN
	1    4000 2950
	-1   0    0    1   
$EndComp
$Comp
L Switch:SW_Push SW12
U 1 1 5F253CCA
P 3700 3250
F 0 "SW12" H 3700 3443 50  0000 C CNN
F 1 "SW_Push" H 3700 3444 50  0001 C CNN
F 2 "" H 3700 3450 50  0001 C CNN
F 3 "~" H 3700 3450 50  0001 C CNN
	1    3700 3250
	1    0    0    -1  
$EndComp
$Comp
L Device:D_Small D12
U 1 1 5F253CD0
P 4000 3250
F 0 "D12" H 4000 3135 50  0000 C CNN
F 1 "D_Small" H 4000 3134 50  0001 C CNN
F 2 "" V 4000 3250 50  0001 C CNN
F 3 "~" V 4000 3250 50  0001 C CNN
	1    4000 3250
	-1   0    0    1   
$EndComp
$Comp
L Switch:SW_Push SW13
U 1 1 5F253CD6
P 3700 3550
F 0 "SW13" H 3700 3743 50  0000 C CNN
F 1 "SW_Push" H 3700 3744 50  0001 C CNN
F 2 "" H 3700 3750 50  0001 C CNN
F 3 "~" H 3700 3750 50  0001 C CNN
	1    3700 3550
	1    0    0    -1  
$EndComp
$Comp
L Device:D_Small D13
U 1 1 5F253CDC
P 4000 3550
F 0 "D13" H 4000 3435 50  0000 C CNN
F 1 "D_Small" H 4000 3434 50  0001 C CNN
F 2 "" V 4000 3550 50  0001 C CNN
F 3 "~" V 4000 3550 50  0001 C CNN
	1    4000 3550
	-1   0    0    1   
$EndComp
$Comp
L Switch:SW_Push SW16
U 1 1 5F2561F5
P 4700 2350
F 0 "SW16" H 4700 2543 50  0000 C CNN
F 1 "SW_Push" H 4700 2544 50  0001 C CNN
F 2 "" H 4700 2550 50  0001 C CNN
F 3 "~" H 4700 2550 50  0001 C CNN
	1    4700 2350
	1    0    0    -1  
$EndComp
$Comp
L Device:D_Small D16
U 1 1 5F2561FB
P 5000 2350
F 0 "D16" H 5000 2235 50  0000 C CNN
F 1 "D_Small" H 5000 2234 50  0001 C CNN
F 2 "" V 5000 2350 50  0001 C CNN
F 3 "~" V 5000 2350 50  0001 C CNN
	1    5000 2350
	-1   0    0    1   
$EndComp
$Comp
L Switch:SW_Push SW17
U 1 1 5F256201
P 4700 2650
F 0 "SW17" H 4700 2843 50  0000 C CNN
F 1 "SW_Push" H 4700 2844 50  0001 C CNN
F 2 "" H 4700 2850 50  0001 C CNN
F 3 "~" H 4700 2850 50  0001 C CNN
	1    4700 2650
	1    0    0    -1  
$EndComp
$Comp
L Device:D_Small D17
U 1 1 5F256207
P 5000 2650
F 0 "D17" H 5000 2535 50  0000 C CNN
F 1 "D_Small" H 5000 2534 50  0001 C CNN
F 2 "" V 5000 2650 50  0001 C CNN
F 3 "~" V 5000 2650 50  0001 C CNN
	1    5000 2650
	-1   0    0    1   
$EndComp
$Comp
L Switch:SW_Push SW18
U 1 1 5F25620D
P 4700 2950
F 0 "SW18" H 4700 3143 50  0000 C CNN
F 1 "SW_Push" H 4700 3144 50  0001 C CNN
F 2 "" H 4700 3150 50  0001 C CNN
F 3 "~" H 4700 3150 50  0001 C CNN
	1    4700 2950
	1    0    0    -1  
$EndComp
$Comp
L Device:D_Small D18
U 1 1 5F256213
P 5000 2950
F 0 "D18" H 5000 2835 50  0000 C CNN
F 1 "D_Small" H 5000 2834 50  0001 C CNN
F 2 "" V 5000 2950 50  0001 C CNN
F 3 "~" V 5000 2950 50  0001 C CNN
	1    5000 2950
	-1   0    0    1   
$EndComp
$Comp
L Switch:SW_Push SW19
U 1 1 5F256219
P 4700 3250
F 0 "SW19" H 4700 3443 50  0000 C CNN
F 1 "SW_Push" H 4700 3444 50  0001 C CNN
F 2 "" H 4700 3450 50  0001 C CNN
F 3 "~" H 4700 3450 50  0001 C CNN
	1    4700 3250
	1    0    0    -1  
$EndComp
$Comp
L Device:D_Small D19
U 1 1 5F25621F
P 5000 3250
F 0 "D19" H 5000 3135 50  0000 C CNN
F 1 "D_Small" H 5000 3134 50  0001 C CNN
F 2 "" V 5000 3250 50  0001 C CNN
F 3 "~" V 5000 3250 50  0001 C CNN
	1    5000 3250
	-1   0    0    1   
$EndComp
$Comp
L Switch:SW_Push SW20
U 1 1 5F256225
P 4700 3550
F 0 "SW20" H 4700 3743 50  0000 C CNN
F 1 "SW_Push" H 4700 3744 50  0001 C CNN
F 2 "" H 4700 3750 50  0001 C CNN
F 3 "~" H 4700 3750 50  0001 C CNN
	1    4700 3550
	1    0    0    -1  
$EndComp
$Comp
L Device:D_Small D20
U 1 1 5F25622B
P 5000 3550
F 0 "D20" H 5000 3435 50  0000 C CNN
F 1 "D_Small" H 5000 3434 50  0001 C CNN
F 2 "" V 5000 3550 50  0001 C CNN
F 3 "~" V 5000 3550 50  0001 C CNN
	1    5000 3550
	-1   0    0    1   
$EndComp
$Comp
L Switch:SW_Push SW23
U 1 1 5F25D2E9
P 5700 2350
F 0 "SW23" H 5700 2543 50  0000 C CNN
F 1 "SW_Push" H 5700 2544 50  0001 C CNN
F 2 "" H 5700 2550 50  0001 C CNN
F 3 "~" H 5700 2550 50  0001 C CNN
	1    5700 2350
	1    0    0    -1  
$EndComp
$Comp
L Device:D_Small D23
U 1 1 5F25D2EF
P 6000 2350
F 0 "D23" H 6000 2235 50  0000 C CNN
F 1 "D_Small" H 6000 2234 50  0001 C CNN
F 2 "" V 6000 2350 50  0001 C CNN
F 3 "~" V 6000 2350 50  0001 C CNN
	1    6000 2350
	-1   0    0    1   
$EndComp
$Comp
L Switch:SW_Push SW24
U 1 1 5F25D2F5
P 5700 2650
F 0 "SW24" H 5700 2843 50  0000 C CNN
F 1 "SW_Push" H 5700 2844 50  0001 C CNN
F 2 "" H 5700 2850 50  0001 C CNN
F 3 "~" H 5700 2850 50  0001 C CNN
	1    5700 2650
	1    0    0    -1  
$EndComp
$Comp
L Device:D_Small D24
U 1 1 5F25D2FB
P 6000 2650
F 0 "D24" H 6000 2535 50  0000 C CNN
F 1 "D_Small" H 6000 2534 50  0001 C CNN
F 2 "" V 6000 2650 50  0001 C CNN
F 3 "~" V 6000 2650 50  0001 C CNN
	1    6000 2650
	-1   0    0    1   
$EndComp
$Comp
L Switch:SW_Push SW25
U 1 1 5F25D301
P 5700 2950
F 0 "SW25" H 5700 3143 50  0000 C CNN
F 1 "SW_Push" H 5700 3144 50  0001 C CNN
F 2 "" H 5700 3150 50  0001 C CNN
F 3 "~" H 5700 3150 50  0001 C CNN
	1    5700 2950
	1    0    0    -1  
$EndComp
$Comp
L Device:D_Small D25
U 1 1 5F25D307
P 6000 2950
F 0 "D25" H 6000 2835 50  0000 C CNN
F 1 "D_Small" H 6000 2834 50  0001 C CNN
F 2 "" V 6000 2950 50  0001 C CNN
F 3 "~" V 6000 2950 50  0001 C CNN
	1    6000 2950
	-1   0    0    1   
$EndComp
$Comp
L Switch:SW_Push SW26
U 1 1 5F25D30D
P 5700 3250
F 0 "SW26" H 5700 3443 50  0000 C CNN
F 1 "SW_Push" H 5700 3444 50  0001 C CNN
F 2 "" H 5700 3450 50  0001 C CNN
F 3 "~" H 5700 3450 50  0001 C CNN
	1    5700 3250
	1    0    0    -1  
$EndComp
$Comp
L Device:D_Small D26
U 1 1 5F25D313
P 6000 3250
F 0 "D26" H 6000 3135 50  0000 C CNN
F 1 "D_Small" H 6000 3134 50  0001 C CNN
F 2 "" V 6000 3250 50  0001 C CNN
F 3 "~" V 6000 3250 50  0001 C CNN
	1    6000 3250
	-1   0    0    1   
$EndComp
$Comp
L Switch:SW_Push SW27
U 1 1 5F25D319
P 5700 3550
F 0 "SW27" H 5700 3743 50  0000 C CNN
F 1 "SW_Push" H 5700 3744 50  0001 C CNN
F 2 "" H 5700 3750 50  0001 C CNN
F 3 "~" H 5700 3750 50  0001 C CNN
	1    5700 3550
	1    0    0    -1  
$EndComp
$Comp
L Device:D_Small D27
U 1 1 5F25D31F
P 6000 3550
F 0 "D27" H 6000 3435 50  0000 C CNN
F 1 "D_Small" H 6000 3434 50  0001 C CNN
F 2 "" V 6000 3550 50  0001 C CNN
F 3 "~" V 6000 3550 50  0001 C CNN
	1    6000 3550
	-1   0    0    1   
$EndComp
$Comp
L Switch:SW_Push SW1
U 1 1 5F2614A4
P 2700 2050
F 0 "SW1" H 2700 2243 50  0000 C CNN
F 1 "SW_Push" H 2700 2244 50  0001 C CNN
F 2 "" H 2700 2250 50  0001 C CNN
F 3 "~" H 2700 2250 50  0001 C CNN
	1    2700 2050
	1    0    0    -1  
$EndComp
$Comp
L Device:D_Small D1
U 1 1 5F2614AA
P 3000 2050
F 0 "D1" H 3000 1935 50  0000 C CNN
F 1 "D_Small" H 3000 1934 50  0001 C CNN
F 2 "" V 3000 2050 50  0001 C CNN
F 3 "~" V 3000 2050 50  0001 C CNN
	1    3000 2050
	-1   0    0    1   
$EndComp
$Comp
L Switch:SW_Push SW8
U 1 1 5F2614B0
P 3700 2050
F 0 "SW8" H 3700 2243 50  0000 C CNN
F 1 "SW_Push" H 3700 2244 50  0001 C CNN
F 2 "" H 3700 2250 50  0001 C CNN
F 3 "~" H 3700 2250 50  0001 C CNN
	1    3700 2050
	1    0    0    -1  
$EndComp
$Comp
L Device:D_Small D8
U 1 1 5F2614B6
P 4000 2050
F 0 "D8" H 4000 1935 50  0000 C CNN
F 1 "D_Small" H 4000 1934 50  0001 C CNN
F 2 "" V 4000 2050 50  0001 C CNN
F 3 "~" V 4000 2050 50  0001 C CNN
	1    4000 2050
	-1   0    0    1   
$EndComp
$Comp
L Switch:SW_Push SW15
U 1 1 5F2614BC
P 4700 2050
F 0 "SW15" H 4700 2243 50  0000 C CNN
F 1 "SW_Push" H 4700 2244 50  0001 C CNN
F 2 "" H 4700 2250 50  0001 C CNN
F 3 "~" H 4700 2250 50  0001 C CNN
	1    4700 2050
	1    0    0    -1  
$EndComp
$Comp
L Device:D_Small D15
U 1 1 5F2614C2
P 5000 2050
F 0 "D15" H 5000 1935 50  0000 C CNN
F 1 "D_Small" H 5000 1934 50  0001 C CNN
F 2 "" V 5000 2050 50  0001 C CNN
F 3 "~" V 5000 2050 50  0001 C CNN
	1    5000 2050
	-1   0    0    1   
$EndComp
$Comp
L Switch:SW_Push SW22
U 1 1 5F2614C8
P 5700 2050
F 0 "SW22" H 5700 2243 50  0000 C CNN
F 1 "SW_Push" H 5700 2244 50  0001 C CNN
F 2 "" H 5700 2250 50  0001 C CNN
F 3 "~" H 5700 2250 50  0001 C CNN
	1    5700 2050
	1    0    0    -1  
$EndComp
$Comp
L Device:D_Small D22
U 1 1 5F2614CE
P 6000 2050
F 0 "D22" H 6000 1935 50  0000 C CNN
F 1 "D_Small" H 6000 1934 50  0001 C CNN
F 2 "" V 6000 2050 50  0001 C CNN
F 3 "~" V 6000 2050 50  0001 C CNN
	1    6000 2050
	-1   0    0    1   
$EndComp
$Comp
L Switch:SW_Push SW7
U 1 1 5F265227
P 2700 3950
F 0 "SW7" H 2700 4235 50  0000 C CNN
F 1 "PREV" H 2700 4144 50  0000 C CNN
F 2 "" H 2700 4150 50  0001 C CNN
F 3 "~" H 2700 4150 50  0001 C CNN
	1    2700 3950
	1    0    0    -1  
$EndComp
$Comp
L Device:D_Small D7
U 1 1 5F26522D
P 3000 3950
F 0 "D7" H 3000 3835 50  0000 C CNN
F 1 "D_Small" H 3000 3834 50  0001 C CNN
F 2 "" V 3000 3950 50  0001 C CNN
F 3 "~" V 3000 3950 50  0001 C CNN
	1    3000 3950
	-1   0    0    1   
$EndComp
$Comp
L Switch:SW_Push SW14
U 1 1 5F265233
P 3700 3950
F 0 "SW14" H 3700 4235 50  0000 C CNN
F 1 "NEXT" H 3700 4144 50  0000 C CNN
F 2 "" H 3700 4150 50  0001 C CNN
F 3 "~" H 3700 4150 50  0001 C CNN
	1    3700 3950
	1    0    0    -1  
$EndComp
$Comp
L Device:D_Small D14
U 1 1 5F265239
P 4000 3950
F 0 "D14" H 4000 3835 50  0000 C CNN
F 1 "D_Small" H 4000 3834 50  0001 C CNN
F 2 "" V 4000 3950 50  0001 C CNN
F 3 "~" V 4000 3950 50  0001 C CNN
	1    4000 3950
	-1   0    0    1   
$EndComp
$Comp
L Switch:SW_Push SW21
U 1 1 5F26523F
P 4700 3950
F 0 "SW21" H 4700 4235 50  0000 C CNN
F 1 "LIGHT" H 4700 4144 50  0000 C CNN
F 2 "" H 4700 4150 50  0001 C CNN
F 3 "~" H 4700 4150 50  0001 C CNN
	1    4700 3950
	1    0    0    -1  
$EndComp
$Comp
L Device:D_Small D21
U 1 1 5F265245
P 5000 3950
F 0 "D21" H 5000 3835 50  0000 C CNN
F 1 "D_Small" H 5000 3834 50  0001 C CNN
F 2 "" V 5000 3950 50  0001 C CNN
F 3 "~" V 5000 3950 50  0001 C CNN
	1    5000 3950
	-1   0    0    1   
$EndComp
Wire Wire Line
	2500 2050 2500 1150
Connection ~ 2500 1150
Wire Wire Line
	5450 2350 5500 2350
Wire Wire Line
	4450 2350 4500 2350
Wire Wire Line
	3450 2350 3500 2350
Wire Wire Line
	2450 2350 2500 2350
Connection ~ 2450 1250
Wire Wire Line
	5400 2650 5500 2650
Wire Wire Line
	4500 2650 4400 2650
Wire Wire Line
	4400 2650 4400 1350
Wire Wire Line
	3500 2650 3400 2650
Wire Wire Line
	3400 2650 3400 1350
Wire Wire Line
	2500 2650 2400 2650
Wire Wire Line
	2400 2650 2400 1350
Connection ~ 2400 1350
Wire Wire Line
	5350 2950 5500 2950
Wire Wire Line
	5300 3250 5500 3250
Wire Wire Line
	5250 3550 5500 3550
Wire Wire Line
	1550 1650 2250 1650
Connection ~ 6100 2350
Wire Wire Line
	6100 2350 6100 2050
Connection ~ 6100 2650
Wire Wire Line
	6100 2650 6100 2350
Connection ~ 6100 2950
Wire Wire Line
	6100 2950 6100 2650
Connection ~ 6100 3250
Wire Wire Line
	6100 3250 6100 2950
Wire Wire Line
	5100 2050 5100 2350
Connection ~ 5100 2350
Wire Wire Line
	5100 2350 5100 2650
Connection ~ 5100 2650
Wire Wire Line
	5100 2650 5100 2950
Connection ~ 5100 2950
Wire Wire Line
	5100 2950 5100 3250
Connection ~ 5100 3250
Wire Wire Line
	4500 2950 4350 2950
Wire Wire Line
	4350 2950 4350 1450
Wire Wire Line
	4500 3250 4300 3250
Wire Wire Line
	4300 3250 4300 1550
Wire Wire Line
	4500 3550 4250 3550
Wire Wire Line
	4250 3550 4250 1650
Wire Wire Line
	4100 2050 4100 2350
Connection ~ 4100 2350
Wire Wire Line
	4100 2350 4100 2650
Connection ~ 4100 2650
Wire Wire Line
	4100 2650 4100 2950
Connection ~ 4100 2950
Wire Wire Line
	4100 2950 4100 3250
Connection ~ 4100 3250
Wire Wire Line
	3500 2950 3350 2950
Wire Wire Line
	3350 2950 3350 1450
Wire Wire Line
	3500 3250 3300 3250
Wire Wire Line
	3300 3250 3300 1550
Wire Wire Line
	3500 3550 3250 3550
Wire Wire Line
	3250 3550 3250 1650
Wire Wire Line
	3100 2050 3100 2350
Connection ~ 3100 2350
Wire Wire Line
	3100 2350 3100 2650
Connection ~ 3100 2650
Wire Wire Line
	3100 2650 3100 2950
Connection ~ 3100 2950
Wire Wire Line
	3100 2950 3100 3250
Connection ~ 3100 3250
Connection ~ 3300 1550
Connection ~ 3350 1450
Connection ~ 3400 1350
Connection ~ 3450 1250
Connection ~ 3500 1150
Connection ~ 4300 1550
Connection ~ 4350 1450
Connection ~ 4400 1350
Connection ~ 4450 1250
Connection ~ 4500 1150
Wire Wire Line
	4300 1550 5300 1550
Wire Wire Line
	5250 1650 4250 1650
Connection ~ 3250 1650
Connection ~ 4250 1650
Wire Wire Line
	2500 2950 2350 2950
Wire Wire Line
	2350 2950 2350 1450
Connection ~ 2350 1450
Wire Wire Line
	2500 3250 2300 3250
Wire Wire Line
	2300 3250 2300 1550
Connection ~ 2300 1550
Wire Wire Line
	2500 3550 2250 3550
Wire Wire Line
	2250 3550 2250 1650
Connection ~ 2250 1650
Wire Wire Line
	2250 1650 3250 1650
Connection ~ 3100 3550
Connection ~ 4100 3550
Connection ~ 5100 3550
Wire Wire Line
	4200 3950 4500 3950
Wire Wire Line
	1550 1750 2200 1750
Wire Wire Line
	3500 3950 3200 3950
Wire Wire Line
	3200 3950 3200 1750
Connection ~ 3200 1750
Wire Wire Line
	3200 1750 4200 1750
Wire Wire Line
	2500 3950 2200 3950
Wire Wire Line
	2200 3950 2200 1750
Connection ~ 2200 1750
Wire Wire Line
	2200 1750 3200 1750
NoConn ~ 1550 1850
$Comp
L power:+3.3V #PWR06
U 1 1 5F3077CC
P 1150 800
F 0 "#PWR06" H 1150 650 50  0001 C CNN
F 1 "+3.3V" H 1165 973 50  0000 C CNN
F 2 "" H 1150 800 50  0001 C CNN
F 3 "" H 1150 800 50  0001 C CNN
	1    1150 800 
	1    0    0    -1  
$EndComp
Connection ~ 1150 850 
Connection ~ 6100 3550
Wire Wire Line
	5100 4350 5100 4050
Wire Wire Line
	3100 4350 3100 4050
Text Label 3100 4350 1    50   ~ 0
C0
Text Label 4100 4350 1    50   ~ 0
C1
Text Label 5100 4350 1    50   ~ 0
C2
Text Label 6100 4350 1    50   ~ 0
C3
Wire Wire Line
	9550 3050 9200 3050
Wire Wire Line
	9550 3250 9200 3250
Wire Wire Line
	9550 3350 9200 3350
Text Label 9200 3050 0    50   ~ 0
C0
Text Label 9200 3150 0    50   ~ 0
C1
Text Label 9200 3250 0    50   ~ 0
C2
Text Label 9200 3350 0    50   ~ 0
C3
Wire Wire Line
	1150 850  1150 800 
Wire Wire Line
	850  1150 750  1150
$Comp
L Device:R_Small R3
U 1 1 5F4183E3
P 2600 4200
F 0 "R3" H 2541 4154 50  0000 R CNN
F 1 "100k" H 2541 4245 50  0000 R CNN
F 2 "" H 2600 4200 50  0001 C CNN
F 3 "~" H 2600 4200 50  0001 C CNN
	1    2600 4200
	-1   0    0    1   
$EndComp
Wire Wire Line
	2600 4100 2600 4050
Wire Wire Line
	2600 4050 3100 4050
Connection ~ 3100 4050
Wire Wire Line
	3100 4050 3100 3950
$Comp
L power:GND #PWR010
U 1 1 5F4207E1
P 2600 4300
F 0 "#PWR010" H 2600 4050 50  0001 C CNN
F 1 "GND" H 2605 4127 50  0000 C CNN
F 2 "" H 2600 4300 50  0001 C CNN
F 3 "" H 2600 4300 50  0001 C CNN
	1    2600 4300
	1    0    0    -1  
$EndComp
$Comp
L Device:R_Small R4
U 1 1 5F4212D3
P 3600 4200
F 0 "R4" H 3541 4154 50  0000 R CNN
F 1 "100k" H 3541 4245 50  0000 R CNN
F 2 "" H 3600 4200 50  0001 C CNN
F 3 "~" H 3600 4200 50  0001 C CNN
	1    3600 4200
	-1   0    0    1   
$EndComp
Wire Wire Line
	3600 4100 3600 4050
$Comp
L power:GND #PWR011
U 1 1 5F4212DB
P 3600 4300
F 0 "#PWR011" H 3600 4050 50  0001 C CNN
F 1 "GND" H 3605 4127 50  0000 C CNN
F 2 "" H 3600 4300 50  0001 C CNN
F 3 "" H 3600 4300 50  0001 C CNN
	1    3600 4300
	1    0    0    -1  
$EndComp
$Comp
L Device:R_Small R5
U 1 1 5F427B33
P 4600 4200
F 0 "R5" H 4541 4154 50  0000 R CNN
F 1 "100k" H 4541 4245 50  0000 R CNN
F 2 "" H 4600 4200 50  0001 C CNN
F 3 "~" H 4600 4200 50  0001 C CNN
	1    4600 4200
	-1   0    0    1   
$EndComp
Wire Wire Line
	4600 4100 4600 4050
$Comp
L power:GND #PWR012
U 1 1 5F427B3B
P 4600 4300
F 0 "#PWR012" H 4600 4050 50  0001 C CNN
F 1 "GND" H 4605 4127 50  0000 C CNN
F 2 "" H 4600 4300 50  0001 C CNN
F 3 "" H 4600 4300 50  0001 C CNN
	1    4600 4300
	1    0    0    -1  
$EndComp
$Comp
L Device:R_Small R6
U 1 1 5F42E244
P 5600 4200
F 0 "R6" H 5541 4154 50  0000 R CNN
F 1 "100k" H 5541 4245 50  0000 R CNN
F 2 "" H 5600 4200 50  0001 C CNN
F 3 "~" H 5600 4200 50  0001 C CNN
	1    5600 4200
	-1   0    0    1   
$EndComp
Wire Wire Line
	5600 4100 5600 4050
$Comp
L power:GND #PWR013
U 1 1 5F42E24C
P 5600 4300
F 0 "#PWR013" H 5600 4050 50  0001 C CNN
F 1 "GND" H 5605 4127 50  0000 C CNN
F 2 "" H 5600 4300 50  0001 C CNN
F 3 "" H 5600 4300 50  0001 C CNN
	1    5600 4300
	1    0    0    -1  
$EndComp
Wire Wire Line
	3600 4050 4100 4050
Connection ~ 4100 4050
Wire Wire Line
	4100 4050 4100 4350
Wire Wire Line
	4600 4050 5100 4050
Connection ~ 5100 4050
Wire Wire Line
	5100 4050 5100 3950
Wire Wire Line
	5600 4050 6100 4050
Wire Wire Line
	6100 4050 6100 4350
$Comp
L power:+3.3V #PWR01
U 1 1 5F4565DF
P 750 800
F 0 "#PWR01" H 750 650 50  0001 C CNN
F 1 "+3.3V" H 765 973 50  0000 C CNN
F 2 "" H 750 800 50  0001 C CNN
F 3 "" H 750 800 50  0001 C CNN
	1    750  800 
	1    0    0    -1  
$EndComp
Wire Wire Line
	3250 1650 4250 1650
Wire Wire Line
	9550 5250 9200 5250
Wire Wire Line
	9550 5350 9200 5350
Wire Wire Line
	9550 5550 9500 5550
Text Label 9200 5250 0    50   ~ 0
SWCLK
Text Label 9200 5350 0    50   ~ 0
SWDIO
Text Label 9200 5550 0    50   ~ 0
~RESET
Wire Wire Line
	9550 2250 9200 2250
Wire Wire Line
	9550 2350 9200 2350
Text Label 9200 2250 0    50   ~ 0
XIN32
Text Label 9200 2350 0    50   ~ 0
XOUT32
Wire Wire Line
	9550 3150 9200 3150
$Comp
L Device:LED_Small D46
U 1 1 5F4D151F
P 8600 1900
F 0 "D46" H 8600 1785 50  0000 C CNN
F 1 "LED_Small" H 8600 1784 50  0001 C CNN
F 2 "" V 8600 1900 50  0001 C CNN
F 3 "~" V 8600 1900 50  0001 C CNN
	1    8600 1900
	-1   0    0    1   
$EndComp
$Comp
L Device:LED_Small D47
U 1 1 5F4D152B
P 8600 2150
F 0 "D47" H 8600 2035 50  0000 C CNN
F 1 "LED_Small" H 8600 2034 50  0001 C CNN
F 2 "" V 8600 2150 50  0001 C CNN
F 3 "~" V 8600 2150 50  0001 C CNN
	1    8600 2150
	-1   0    0    1   
$EndComp
$Comp
L Device:LED_Small D48
U 1 1 5F4D1537
P 8600 2400
F 0 "D48" H 8600 2285 50  0000 C CNN
F 1 "LED_Small" H 8600 2284 50  0001 C CNN
F 2 "" V 8600 2400 50  0001 C CNN
F 3 "~" V 8600 2400 50  0001 C CNN
	1    8600 2400
	-1   0    0    1   
$EndComp
$Comp
L Device:LED_Small D49
U 1 1 5F4D1543
P 8600 2650
F 0 "D49" H 8600 2535 50  0000 C CNN
F 1 "LED_Small" H 8600 2534 50  0001 C CNN
F 2 "" V 8600 2650 50  0001 C CNN
F 3 "~" V 8600 2650 50  0001 C CNN
	1    8600 2650
	-1   0    0    1   
$EndComp
$Comp
L Device:LED_Small D50
U 1 1 5F4D154F
P 8600 2900
F 0 "D50" H 8600 2785 50  0000 C CNN
F 1 "LED_Small" H 8600 2784 50  0001 C CNN
F 2 "" V 8600 2900 50  0001 C CNN
F 3 "~" V 8600 2900 50  0001 C CNN
	1    8600 2900
	-1   0    0    1   
$EndComp
$Comp
L Device:LED_Small D51
U 1 1 5F4D155B
P 8600 3150
F 0 "D51" H 8600 3035 50  0000 C CNN
F 1 "LED_Small" H 8600 3034 50  0001 C CNN
F 2 "" V 8600 3150 50  0001 C CNN
F 3 "~" V 8600 3150 50  0001 C CNN
	1    8600 3150
	-1   0    0    1   
$EndComp
Wire Wire Line
	8700 1900 8700 2150
Connection ~ 8700 2150
Wire Wire Line
	8700 2150 8700 2400
Connection ~ 8700 2400
Wire Wire Line
	8700 2400 8700 2650
Connection ~ 8700 2650
Wire Wire Line
	8700 2650 8700 2900
Connection ~ 8700 2900
Wire Wire Line
	8700 2900 8700 3150
Connection ~ 8700 3150
Wire Wire Line
	8700 3150 8700 3300
$Comp
L power:GND #PWR021
U 1 1 5F54B7F7
P 8700 3300
F 0 "#PWR021" H 8700 3050 50  0001 C CNN
F 1 "GND" H 8705 3127 50  0000 C CNN
F 2 "" H 8700 3300 50  0001 C CNN
F 3 "" H 8700 3300 50  0001 C CNN
	1    8700 3300
	1    0    0    -1  
$EndComp
Text Label 6550 1200 0    50   ~ 0
LPWM
Connection ~ 6800 1900
Wire Wire Line
	6800 1650 6800 1900
Connection ~ 7300 1900
Wire Wire Line
	7300 1650 7300 1900
Connection ~ 7800 1900
Wire Wire Line
	7800 1650 7800 1900
Connection ~ 8300 1900
$Comp
L power:GND #PWR020
U 1 1 5F54B5C2
P 8200 3300
F 0 "#PWR020" H 8200 3050 50  0001 C CNN
F 1 "GND" H 8205 3127 50  0000 C CNN
F 2 "" H 8200 3300 50  0001 C CNN
F 3 "" H 8200 3300 50  0001 C CNN
	1    8200 3300
	1    0    0    -1  
$EndComp
$Comp
L power:GND #PWR018
U 1 1 5F54B304
P 7700 3300
F 0 "#PWR018" H 7700 3050 50  0001 C CNN
F 1 "GND" H 7705 3127 50  0000 C CNN
F 2 "" H 7700 3300 50  0001 C CNN
F 3 "" H 7700 3300 50  0001 C CNN
	1    7700 3300
	1    0    0    -1  
$EndComp
$Comp
L power:GND #PWR016
U 1 1 5F54B015
P 7200 3300
F 0 "#PWR016" H 7200 3050 50  0001 C CNN
F 1 "GND" H 7205 3127 50  0000 C CNN
F 2 "" H 7200 3300 50  0001 C CNN
F 3 "" H 7200 3300 50  0001 C CNN
	1    7200 3300
	1    0    0    -1  
$EndComp
Wire Wire Line
	8200 3150 8200 3300
Connection ~ 8200 3150
Wire Wire Line
	8200 2900 8200 3150
Connection ~ 8200 2900
Wire Wire Line
	8200 2650 8200 2900
Connection ~ 8200 2650
Wire Wire Line
	8200 2400 8200 2650
Connection ~ 8200 2400
Wire Wire Line
	8200 2150 8200 2400
Connection ~ 8200 2150
Wire Wire Line
	8200 1900 8200 2150
Wire Wire Line
	7700 3150 7700 3300
Connection ~ 7700 3150
Wire Wire Line
	7700 2900 7700 3150
Connection ~ 7700 2900
Wire Wire Line
	7700 2650 7700 2900
Connection ~ 7700 2650
Wire Wire Line
	7700 2400 7700 2650
Connection ~ 7700 2400
Wire Wire Line
	7700 2150 7700 2400
Connection ~ 7700 2150
Wire Wire Line
	7700 1900 7700 2150
Wire Wire Line
	7200 3150 7200 3300
Connection ~ 7200 3150
Wire Wire Line
	7200 2900 7200 3150
Connection ~ 7200 2900
Wire Wire Line
	7200 2650 7200 2900
Connection ~ 7200 2650
Wire Wire Line
	7200 2400 7200 2650
Connection ~ 7200 2400
Wire Wire Line
	7200 2150 7200 2400
Connection ~ 7200 2150
Wire Wire Line
	7200 1900 7200 2150
Wire Wire Line
	8300 2900 8300 2650
Connection ~ 8300 2900
Wire Wire Line
	8300 2650 8300 2400
Connection ~ 8300 2650
Wire Wire Line
	8300 2400 8300 2150
Connection ~ 8300 2400
Wire Wire Line
	8300 2150 8300 1900
Connection ~ 8300 2150
Wire Wire Line
	8300 3150 8300 2900
Wire Wire Line
	7800 2900 7800 3150
Connection ~ 7800 2900
Wire Wire Line
	7800 2650 7800 2900
Connection ~ 7800 2650
Wire Wire Line
	7800 2400 7800 2650
Connection ~ 7800 2400
Wire Wire Line
	7800 2150 7800 2400
Connection ~ 7800 2150
Wire Wire Line
	7800 1900 7800 2150
Wire Wire Line
	7300 2900 7300 2650
Connection ~ 7300 2900
Wire Wire Line
	7300 2650 7300 2400
Connection ~ 7300 2650
Wire Wire Line
	7300 2400 7300 2150
Connection ~ 7300 2400
Wire Wire Line
	7300 2150 7300 1900
Connection ~ 7300 2150
Wire Wire Line
	7300 3150 7300 2900
Wire Wire Line
	6800 2900 6800 2650
Connection ~ 6800 2900
Wire Wire Line
	6800 2650 6800 2400
Connection ~ 6800 2650
Wire Wire Line
	6800 2400 6800 2150
Connection ~ 6800 2400
Wire Wire Line
	6800 2150 6800 1900
Connection ~ 6800 2150
Wire Wire Line
	6800 3150 6800 2900
$Comp
L Device:R_Small R7
U 1 1 5F4A18A0
P 6900 1900
F 0 "R7" V 6796 1900 50  0000 C CNN
F 1 "1k" V 6795 1900 50  0001 C CNN
F 2 "" H 6900 1900 50  0001 C CNN
F 3 "~" H 6900 1900 50  0001 C CNN
	1    6900 1900
	0    1    1    0   
$EndComp
$Comp
L Device:R_Small R8
U 1 1 5F4A36DF
P 6900 2150
F 0 "R8" V 6796 2150 50  0000 C CNN
F 1 "1k" V 6795 2150 50  0001 C CNN
F 2 "" H 6900 2150 50  0001 C CNN
F 3 "~" H 6900 2150 50  0001 C CNN
	1    6900 2150
	0    1    1    0   
$EndComp
$Comp
L Device:R_Small R9
U 1 1 5F4A8F95
P 6900 2400
F 0 "R9" V 6796 2400 50  0000 C CNN
F 1 "1k" V 6795 2400 50  0001 C CNN
F 2 "" H 6900 2400 50  0001 C CNN
F 3 "~" H 6900 2400 50  0001 C CNN
	1    6900 2400
	0    1    1    0   
$EndComp
$Comp
L Device:R_Small R10
U 1 1 5F4AEC51
P 6900 2650
F 0 "R10" V 6796 2650 50  0000 C CNN
F 1 "1k" V 6795 2650 50  0001 C CNN
F 2 "" H 6900 2650 50  0001 C CNN
F 3 "~" H 6900 2650 50  0001 C CNN
	1    6900 2650
	0    1    1    0   
$EndComp
$Comp
L Device:R_Small R11
U 1 1 5F4B46AD
P 6900 2900
F 0 "R11" V 6796 2900 50  0000 C CNN
F 1 "1k" V 6795 2900 50  0001 C CNN
F 2 "" H 6900 2900 50  0001 C CNN
F 3 "~" H 6900 2900 50  0001 C CNN
	1    6900 2900
	0    1    1    0   
$EndComp
$Comp
L Device:R_Small R12
U 1 1 5F4BA0E3
P 6900 3150
F 0 "R12" V 6796 3150 50  0000 C CNN
F 1 "1k" V 6795 3150 50  0001 C CNN
F 2 "" H 6900 3150 50  0001 C CNN
F 3 "~" H 6900 3150 50  0001 C CNN
	1    6900 3150
	0    1    1    0   
$EndComp
$Comp
L Device:R_Small R13
U 1 1 5F4C203D
P 7400 1900
F 0 "R13" V 7296 1900 50  0000 C CNN
F 1 "1k" V 7295 1900 50  0001 C CNN
F 2 "" H 7400 1900 50  0001 C CNN
F 3 "~" H 7400 1900 50  0001 C CNN
	1    7400 1900
	0    1    1    0   
$EndComp
$Comp
L Device:R_Small R14
U 1 1 5F4C2049
P 7400 2150
F 0 "R14" V 7296 2150 50  0000 C CNN
F 1 "1k" V 7295 2150 50  0001 C CNN
F 2 "" H 7400 2150 50  0001 C CNN
F 3 "~" H 7400 2150 50  0001 C CNN
	1    7400 2150
	0    1    1    0   
$EndComp
$Comp
L Device:R_Small R15
U 1 1 5F4C2055
P 7400 2400
F 0 "R15" V 7296 2400 50  0000 C CNN
F 1 "1k" V 7295 2400 50  0001 C CNN
F 2 "" H 7400 2400 50  0001 C CNN
F 3 "~" H 7400 2400 50  0001 C CNN
	1    7400 2400
	0    1    1    0   
$EndComp
$Comp
L Device:R_Small R16
U 1 1 5F4C2061
P 7400 2650
F 0 "R16" V 7296 2650 50  0000 C CNN
F 1 "1k" V 7295 2650 50  0001 C CNN
F 2 "" H 7400 2650 50  0001 C CNN
F 3 "~" H 7400 2650 50  0001 C CNN
	1    7400 2650
	0    1    1    0   
$EndComp
$Comp
L Device:R_Small R17
U 1 1 5F4C206D
P 7400 2900
F 0 "R17" V 7296 2900 50  0000 C CNN
F 1 "1k" V 7295 2900 50  0001 C CNN
F 2 "" H 7400 2900 50  0001 C CNN
F 3 "~" H 7400 2900 50  0001 C CNN
	1    7400 2900
	0    1    1    0   
$EndComp
$Comp
L Device:R_Small R18
U 1 1 5F4C2079
P 7400 3150
F 0 "R18" V 7296 3150 50  0000 C CNN
F 1 "1k" V 7295 3150 50  0001 C CNN
F 2 "" H 7400 3150 50  0001 C CNN
F 3 "~" H 7400 3150 50  0001 C CNN
	1    7400 3150
	0    1    1    0   
$EndComp
$Comp
L Device:R_Small R19
U 1 1 5F4C94E9
P 7900 1900
F 0 "R19" V 7796 1900 50  0000 C CNN
F 1 "1k" V 7795 1900 50  0001 C CNN
F 2 "" H 7900 1900 50  0001 C CNN
F 3 "~" H 7900 1900 50  0001 C CNN
	1    7900 1900
	0    1    1    0   
$EndComp
$Comp
L Device:R_Small R20
U 1 1 5F4C94F5
P 7900 2150
F 0 "R20" V 7796 2150 50  0000 C CNN
F 1 "1k" V 7795 2150 50  0001 C CNN
F 2 "" H 7900 2150 50  0001 C CNN
F 3 "~" H 7900 2150 50  0001 C CNN
	1    7900 2150
	0    1    1    0   
$EndComp
$Comp
L Device:R_Small R21
U 1 1 5F4C9501
P 7900 2400
F 0 "R21" V 7796 2400 50  0000 C CNN
F 1 "1k" V 7795 2400 50  0001 C CNN
F 2 "" H 7900 2400 50  0001 C CNN
F 3 "~" H 7900 2400 50  0001 C CNN
	1    7900 2400
	0    1    1    0   
$EndComp
$Comp
L Device:R_Small R22
U 1 1 5F4C950D
P 7900 2650
F 0 "R22" V 7796 2650 50  0000 C CNN
F 1 "1k" V 7795 2650 50  0001 C CNN
F 2 "" H 7900 2650 50  0001 C CNN
F 3 "~" H 7900 2650 50  0001 C CNN
	1    7900 2650
	0    1    1    0   
$EndComp
$Comp
L Device:R_Small R23
U 1 1 5F4C9519
P 7900 2900
F 0 "R23" V 7796 2900 50  0000 C CNN
F 1 "1k" V 7795 2900 50  0001 C CNN
F 2 "" H 7900 2900 50  0001 C CNN
F 3 "~" H 7900 2900 50  0001 C CNN
	1    7900 2900
	0    1    1    0   
$EndComp
$Comp
L Device:R_Small R24
U 1 1 5F4C9525
P 7900 3150
F 0 "R24" V 7796 3150 50  0000 C CNN
F 1 "1k" V 7795 3150 50  0001 C CNN
F 2 "" H 7900 3150 50  0001 C CNN
F 3 "~" H 7900 3150 50  0001 C CNN
	1    7900 3150
	0    1    1    0   
$EndComp
$Comp
L Device:R_Small R25
U 1 1 5F4D1525
P 8400 1900
F 0 "R25" V 8296 1900 50  0000 C CNN
F 1 "1k" V 8295 1900 50  0001 C CNN
F 2 "" H 8400 1900 50  0001 C CNN
F 3 "~" H 8400 1900 50  0001 C CNN
	1    8400 1900
	0    1    1    0   
$EndComp
$Comp
L Device:R_Small R26
U 1 1 5F4D1531
P 8400 2150
F 0 "R26" V 8296 2150 50  0000 C CNN
F 1 "1k" V 8295 2150 50  0001 C CNN
F 2 "" H 8400 2150 50  0001 C CNN
F 3 "~" H 8400 2150 50  0001 C CNN
	1    8400 2150
	0    1    1    0   
$EndComp
$Comp
L Device:R_Small R27
U 1 1 5F4D153D
P 8400 2400
F 0 "R27" V 8296 2400 50  0000 C CNN
F 1 "1k" V 8295 2400 50  0001 C CNN
F 2 "" H 8400 2400 50  0001 C CNN
F 3 "~" H 8400 2400 50  0001 C CNN
	1    8400 2400
	0    1    1    0   
$EndComp
$Comp
L Device:R_Small R28
U 1 1 5F4D1549
P 8400 2650
F 0 "R28" V 8296 2650 50  0000 C CNN
F 1 "1k" V 8295 2650 50  0001 C CNN
F 2 "" H 8400 2650 50  0001 C CNN
F 3 "~" H 8400 2650 50  0001 C CNN
	1    8400 2650
	0    1    1    0   
$EndComp
$Comp
L Device:R_Small R29
U 1 1 5F4D1555
P 8400 2900
F 0 "R29" V 8296 2900 50  0000 C CNN
F 1 "1k" V 8295 2900 50  0001 C CNN
F 2 "" H 8400 2900 50  0001 C CNN
F 3 "~" H 8400 2900 50  0001 C CNN
	1    8400 2900
	0    1    1    0   
$EndComp
$Comp
L Device:R_Small R30
U 1 1 5F4D1561
P 8400 3150
F 0 "R30" V 8296 3150 50  0000 C CNN
F 1 "1k" V 8295 3150 50  0001 C CNN
F 2 "" H 8400 3150 50  0001 C CNN
F 3 "~" H 8400 3150 50  0001 C CNN
	1    8400 3150
	0    1    1    0   
$EndComp
$Comp
L Device:LED_Small D45
U 1 1 5F4C951F
P 8100 3150
F 0 "D45" H 8100 3035 50  0000 C CNN
F 1 "LED_Small" H 8100 3034 50  0001 C CNN
F 2 "" V 8100 3150 50  0001 C CNN
F 3 "~" V 8100 3150 50  0001 C CNN
	1    8100 3150
	-1   0    0    1   
$EndComp
$Comp
L Device:LED_Small D44
U 1 1 5F4C9513
P 8100 2900
F 0 "D44" H 8100 2785 50  0000 C CNN
F 1 "LED_Small" H 8100 2784 50  0001 C CNN
F 2 "" V 8100 2900 50  0001 C CNN
F 3 "~" V 8100 2900 50  0001 C CNN
	1    8100 2900
	-1   0    0    1   
$EndComp
$Comp
L Device:LED_Small D43
U 1 1 5F4C9507
P 8100 2650
F 0 "D43" H 8100 2535 50  0000 C CNN
F 1 "LED_Small" H 8100 2534 50  0001 C CNN
F 2 "" V 8100 2650 50  0001 C CNN
F 3 "~" V 8100 2650 50  0001 C CNN
	1    8100 2650
	-1   0    0    1   
$EndComp
$Comp
L Device:LED_Small D42
U 1 1 5F4C94FB
P 8100 2400
F 0 "D42" H 8100 2285 50  0000 C CNN
F 1 "LED_Small" H 8100 2284 50  0001 C CNN
F 2 "" V 8100 2400 50  0001 C CNN
F 3 "~" V 8100 2400 50  0001 C CNN
	1    8100 2400
	-1   0    0    1   
$EndComp
$Comp
L Device:LED_Small D41
U 1 1 5F4C94EF
P 8100 2150
F 0 "D41" H 8100 2035 50  0000 C CNN
F 1 "LED_Small" H 8100 2034 50  0001 C CNN
F 2 "" V 8100 2150 50  0001 C CNN
F 3 "~" V 8100 2150 50  0001 C CNN
	1    8100 2150
	-1   0    0    1   
$EndComp
$Comp
L Device:LED_Small D40
U 1 1 5F4C94E3
P 8100 1900
F 0 "D40" H 8100 1785 50  0000 C CNN
F 1 "LED_Small" H 8100 1784 50  0001 C CNN
F 2 "" V 8100 1900 50  0001 C CNN
F 3 "~" V 8100 1900 50  0001 C CNN
	1    8100 1900
	-1   0    0    1   
$EndComp
$Comp
L Device:LED_Small D39
U 1 1 5F4C2073
P 7600 3150
F 0 "D39" H 7600 3035 50  0000 C CNN
F 1 "LED_Small" H 7600 3034 50  0001 C CNN
F 2 "" V 7600 3150 50  0001 C CNN
F 3 "~" V 7600 3150 50  0001 C CNN
	1    7600 3150
	-1   0    0    1   
$EndComp
$Comp
L Device:LED_Small D38
U 1 1 5F4C2067
P 7600 2900
F 0 "D38" H 7600 2785 50  0000 C CNN
F 1 "LED_Small" H 7600 2784 50  0001 C CNN
F 2 "" V 7600 2900 50  0001 C CNN
F 3 "~" V 7600 2900 50  0001 C CNN
	1    7600 2900
	-1   0    0    1   
$EndComp
$Comp
L Device:LED_Small D37
U 1 1 5F4C205B
P 7600 2650
F 0 "D37" H 7600 2535 50  0000 C CNN
F 1 "LED_Small" H 7600 2534 50  0001 C CNN
F 2 "" V 7600 2650 50  0001 C CNN
F 3 "~" V 7600 2650 50  0001 C CNN
	1    7600 2650
	-1   0    0    1   
$EndComp
$Comp
L Device:LED_Small D36
U 1 1 5F4C204F
P 7600 2400
F 0 "D36" H 7600 2285 50  0000 C CNN
F 1 "LED_Small" H 7600 2284 50  0001 C CNN
F 2 "" V 7600 2400 50  0001 C CNN
F 3 "~" V 7600 2400 50  0001 C CNN
	1    7600 2400
	-1   0    0    1   
$EndComp
$Comp
L Device:LED_Small D35
U 1 1 5F4C2043
P 7600 2150
F 0 "D35" H 7600 2035 50  0000 C CNN
F 1 "LED_Small" H 7600 2034 50  0001 C CNN
F 2 "" V 7600 2150 50  0001 C CNN
F 3 "~" V 7600 2150 50  0001 C CNN
	1    7600 2150
	-1   0    0    1   
$EndComp
$Comp
L Device:LED_Small D34
U 1 1 5F4C2037
P 7600 1900
F 0 "D34" H 7600 1785 50  0000 C CNN
F 1 "LED_Small" H 7600 1784 50  0001 C CNN
F 2 "" V 7600 1900 50  0001 C CNN
F 3 "~" V 7600 1900 50  0001 C CNN
	1    7600 1900
	-1   0    0    1   
$EndComp
$Comp
L Device:LED_Small D33
U 1 1 5F4BA0DD
P 7100 3150
F 0 "D33" H 7100 3035 50  0000 C CNN
F 1 "LED_Small" H 7100 3034 50  0001 C CNN
F 2 "" V 7100 3150 50  0001 C CNN
F 3 "~" V 7100 3150 50  0001 C CNN
	1    7100 3150
	-1   0    0    1   
$EndComp
$Comp
L Device:LED_Small D32
U 1 1 5F4B46A7
P 7100 2900
F 0 "D32" H 7100 2785 50  0000 C CNN
F 1 "LED_Small" H 7100 2784 50  0001 C CNN
F 2 "" V 7100 2900 50  0001 C CNN
F 3 "~" V 7100 2900 50  0001 C CNN
	1    7100 2900
	-1   0    0    1   
$EndComp
$Comp
L Device:LED_Small D31
U 1 1 5F4AEC4B
P 7100 2650
F 0 "D31" H 7100 2535 50  0000 C CNN
F 1 "LED_Small" H 7100 2534 50  0001 C CNN
F 2 "" V 7100 2650 50  0001 C CNN
F 3 "~" V 7100 2650 50  0001 C CNN
	1    7100 2650
	-1   0    0    1   
$EndComp
$Comp
L Device:LED_Small D30
U 1 1 5F4A8F8F
P 7100 2400
F 0 "D30" H 7100 2285 50  0000 C CNN
F 1 "LED_Small" H 7100 2284 50  0001 C CNN
F 2 "" V 7100 2400 50  0001 C CNN
F 3 "~" V 7100 2400 50  0001 C CNN
	1    7100 2400
	-1   0    0    1   
$EndComp
$Comp
L Device:LED_Small D29
U 1 1 5F4A36D9
P 7100 2150
F 0 "D29" H 7100 2035 50  0000 C CNN
F 1 "LED_Small" H 7100 2034 50  0001 C CNN
F 2 "" V 7100 2150 50  0001 C CNN
F 3 "~" V 7100 2150 50  0001 C CNN
	1    7100 2150
	-1   0    0    1   
$EndComp
$Comp
L Device:LED_Small D28
U 1 1 5F4A0C62
P 7100 1900
F 0 "D28" H 7100 1785 50  0000 C CNN
F 1 "LED_Small" H 7100 1784 50  0001 C CNN
F 2 "" V 7100 1900 50  0001 C CNN
F 3 "~" V 7100 1900 50  0001 C CNN
	1    7100 1900
	-1   0    0    1   
$EndComp
Wire Wire Line
	5100 3250 5100 3550
Wire Wire Line
	4100 3250 4100 3550
Wire Wire Line
	3100 3250 3100 3550
Wire Wire Line
	6100 3550 6100 4050
Wire Wire Line
	4100 3950 4100 4050
Wire Wire Line
	4100 3550 4100 3950
Wire Wire Line
	3100 3550 3100 3950
Wire Wire Line
	5100 3550 5100 3950
Connection ~ 3100 3950
Connection ~ 4100 3950
Connection ~ 5100 3950
Connection ~ 6100 4050
Wire Wire Line
	1650 5350 1650 5400
Wire Wire Line
	1650 5550 1650 5600
NoConn ~ 1650 5850
NoConn ~ 1650 5950
NoConn ~ 1650 6150
NoConn ~ 1650 6250
NoConn ~ 1650 6450
NoConn ~ 1650 6550
NoConn ~ 1650 6750
NoConn ~ 1650 6850
NoConn ~ 1650 7050
NoConn ~ 1650 7150
Connection ~ 1650 5400
Wire Wire Line
	1650 5400 1650 5450
Connection ~ 1650 5600
Wire Wire Line
	1650 5600 1650 5650
Text Label 3450 5400 2    50   ~ 0
D-
Text Label 3450 5600 2    50   ~ 0
D+
$Comp
L Device:R_Small R1
U 1 1 5F8E4459
P 1800 5050
F 0 "R1" V 1900 4950 50  0000 C CNN
F 1 "5.1k" V 1900 5100 50  0000 C CNN
F 2 "" H 1800 5050 50  0001 C CNN
F 3 "~" H 1800 5050 50  0001 C CNN
	1    1800 5050
	0    -1   -1   0   
$EndComp
$Comp
L Device:R_Small R2
U 1 1 5F8FF8FB
P 1800 5150
F 0 "R2" V 1700 5050 50  0000 C CNN
F 1 "5.1k" V 1700 5200 50  0000 C CNN
F 2 "" H 1800 5150 50  0001 C CNN
F 3 "~" H 1800 5150 50  0001 C CNN
	1    1800 5150
	0    -1   -1   0   
$EndComp
$Comp
L power:GND #PWR09
U 1 1 5F90D95B
P 1950 5100
F 0 "#PWR09" H 1950 4850 50  0001 C CNN
F 1 "GND" V 1955 4972 50  0000 R CNN
F 2 "" H 1950 5100 50  0001 C CNN
F 3 "" H 1950 5100 50  0001 C CNN
	1    1950 5100
	0    -1   -1   0   
$EndComp
Wire Wire Line
	1950 5050 1950 5100
Wire Wire Line
	1950 5150 1950 5100
Connection ~ 1950 5100
Wire Wire Line
	1700 5050 1650 5050
Wire Wire Line
	1650 5150 1700 5150
Wire Wire Line
	1900 5050 1950 5050
Wire Wire Line
	1950 5150 1900 5150
Wire Wire Line
	7300 1650 6800 1650
Wire Wire Line
	9550 3650 9200 3650
Text Label 9200 3650 0    50   ~ 0
LPWM
Wire Wire Line
	9550 4450 9200 4450
Wire Wire Line
	9550 4550 9200 4550
Text Label 9200 4450 0    50   ~ 0
SDA
Text Label 9200 4550 0    50   ~ 0
SCL
$Comp
L Device:D_Schottky_Small D53
U 1 1 5FAE0E48
P 2650 5250
F 0 "D53" V 2650 5320 50  0000 L CNN
F 1 "D_Schottky_Small" H 2650 5366 50  0001 C CNN
F 2 "" V 2650 5250 50  0001 C CNN
F 3 "~" V 2650 5250 50  0001 C CNN
	1    2650 5250
	0    1    1    0   
$EndComp
$Comp
L Device:D_Schottky_Small D55
U 1 1 5FAEECF9
P 2950 5250
F 0 "D55" V 2950 5320 50  0000 L CNN
F 1 "D_Schottky_Small" H 2950 5366 50  0001 C CNN
F 2 "" V 2950 5250 50  0001 C CNN
F 3 "~" V 2950 5250 50  0001 C CNN
	1    2950 5250
	0    1    1    0   
$EndComp
$Comp
L Device:D_Schottky_Small D54
U 1 1 5FAEF5EA
P 2650 5750
F 0 "D54" V 2650 5820 50  0000 L CNN
F 1 "D_Schottky_Small" H 2650 5866 50  0001 C CNN
F 2 "" V 2650 5750 50  0001 C CNN
F 3 "~" V 2650 5750 50  0001 C CNN
	1    2650 5750
	0    1    1    0   
$EndComp
$Comp
L Device:D_Schottky_Small D56
U 1 1 5FAEF5F0
P 2950 5750
F 0 "D56" V 2950 5820 50  0000 L CNN
F 1 "D_Schottky_Small" H 2950 5866 50  0001 C CNN
F 2 "" V 2950 5750 50  0001 C CNN
F 3 "~" V 2950 5750 50  0001 C CNN
	1    2950 5750
	0    1    1    0   
$EndComp
$Comp
L Device:D_Schottky_Small D52
U 1 1 5FAFC1D5
P 2350 5750
F 0 "D52" V 2350 5820 50  0000 L CNN
F 1 "D_Schottky_Small" H 2350 5866 50  0001 C CNN
F 2 "" V 2350 5750 50  0001 C CNN
F 3 "~" V 2350 5750 50  0001 C CNN
	1    2350 5750
	0    1    1    0   
$EndComp
Wire Wire Line
	2350 5850 2650 5850
Connection ~ 2650 5850
Wire Wire Line
	2650 5850 2950 5850
Wire Wire Line
	2950 5150 2650 5150
Connection ~ 2650 5150
Wire Wire Line
	2650 5150 2350 5150
Wire Wire Line
	2350 5150 2350 5650
Wire Wire Line
	2650 5650 2650 5600
Wire Wire Line
	2950 5350 2950 5400
Wire Wire Line
	1650 5400 2950 5400
Connection ~ 2950 5400
Wire Wire Line
	2950 5400 2950 5650
Wire Wire Line
	2950 5400 3450 5400
Wire Wire Line
	3450 5600 2650 5600
Connection ~ 2650 5600
Wire Wire Line
	2650 5600 2650 5350
Wire Wire Line
	1650 5600 2650 5600
Wire Wire Line
	2350 4850 2350 5150
Connection ~ 2350 5150
Connection ~ 2350 4850
Text Label 750  7700 1    50   ~ 0
SHIELD
Wire Wire Line
	750  7450 750  7700
$Comp
L power:GND #PWR03
U 1 1 5FBCB7BB
P 1050 7500
F 0 "#PWR03" H 1050 7250 50  0001 C CNN
F 1 "GND" H 1055 7327 50  0000 C CNN
F 2 "" H 1050 7500 50  0001 C CNN
F 3 "" H 1050 7500 50  0001 C CNN
	1    1050 7500
	1    0    0    -1  
$EndComp
Text Label 3450 5850 2    50   ~ 0
SHIELD
Wire Wire Line
	3000 6450 3000 6800
Text Label 3000 6450 3    50   ~ 0
SHIELD
Connection ~ 3000 6800
Wire Wire Line
	2900 6800 3000 6800
Wire Wire Line
	3000 6800 3100 6800
Wire Wire Line
	3100 6800 3100 6850
Wire Wire Line
	2900 6850 2900 6800
Wire Wire Line
	3000 7100 3100 7100
Connection ~ 3000 7100
Wire Wire Line
	3000 7100 3000 7150
Wire Wire Line
	3100 7100 3100 7050
Wire Wire Line
	2900 7100 3000 7100
Wire Wire Line
	2900 7050 2900 7100
$Comp
L Device:R_Small R31
U 1 1 5FBEE5A0
P 3100 6950
F 0 "R31" H 3159 6996 50  0000 L CNN
F 1 "1M" H 3159 6905 50  0000 L CNN
F 2 "" H 3100 6950 50  0001 C CNN
F 3 "~" H 3100 6950 50  0001 C CNN
	1    3100 6950
	1    0    0    -1  
$EndComp
$Comp
L Device:C_Small C4
U 1 1 5FBEE3BF
P 2900 6950
F 0 "C4" H 2800 7000 50  0000 R CNN
F 1 "4.5nF" H 2800 6900 50  0000 R CNN
F 2 "" H 2900 6950 50  0001 C CNN
F 3 "~" H 2900 6950 50  0001 C CNN
	1    2900 6950
	1    0    0    -1  
$EndComp
$Comp
L power:GND #PWR017
U 1 1 5FBECBC7
P 3000 7150
F 0 "#PWR017" H 3000 6900 50  0001 C CNN
F 1 "GND" H 3005 6977 50  0000 C CNN
F 2 "" H 3000 7150 50  0001 C CNN
F 3 "" H 3000 7150 50  0001 C CNN
	1    3000 7150
	1    0    0    -1  
$EndComp
Wire Wire Line
	2150 7050 2150 7150
Wire Wire Line
	2150 6450 2150 6850
$Comp
L power:GND #PWR05
U 1 1 5F8AAA6A
P 2150 7150
F 0 "#PWR05" H 2150 6900 50  0001 C CNN
F 1 "GND" H 2155 6977 50  0000 C CNN
F 2 "" H 2150 7150 50  0001 C CNN
F 3 "" H 2150 7150 50  0001 C CNN
	1    2150 7150
	1    0    0    -1  
$EndComp
$Comp
L Device:CP_Small C1
U 1 1 5F89BFF1
P 2150 6950
F 0 "C1" H 2250 7000 50  0000 L CNN
F 1 "470uF" H 2250 6900 50  0000 L CNN
F 2 "" H 2150 6950 50  0001 C CNN
F 3 "~" H 2150 6950 50  0001 C CNN
	1    2150 6950
	1    0    0    -1  
$EndComp
NoConn ~ 9550 2550
NoConn ~ 9550 3750
NoConn ~ 9550 3850
NoConn ~ 9550 5050
$Comp
L Memory_EEPROM:AT25xxx U4
U 1 1 5FECA647
P 8050 4600
F 0 "U4" H 8150 5000 50  0000 L CNN
F 1 "AT25xxx" H 8300 4900 50  0000 C CNN
F 2 "" H 8050 4600 50  0001 C CNN
F 3 "http://ww1.microchip.com/downloads/en/DeviceDoc/Atmel-8707-SEEPROM-AT25010B-020B-040B-Datasheet.pdf" H 8050 4600 50  0001 C CNN
	1    8050 4600
	1    0    0    -1  
$EndComp
Wire Wire Line
	8450 4600 8750 4600
Wire Wire Line
	8450 4700 8750 4700
Wire Wire Line
	8450 4500 8750 4500
Wire Wire Line
	9550 2650 9200 2650
Wire Wire Line
	9550 2850 9200 2850
Wire Wire Line
	9550 2950 9200 2950
Text Label 9200 2650 0    50   ~ 0
MISO
Text Label 9200 2850 0    50   ~ 0
MOSI
Text Label 9200 2950 0    50   ~ 0
SCK
Text Label 8750 4500 2    50   ~ 0
SCK
Text Label 8750 4600 2    50   ~ 0
MOSI
Text Label 8750 4700 2    50   ~ 0
MISO
NoConn ~ 9550 2750
Wire Wire Line
	9550 2450 9200 2450
Text Label 9200 2450 0    50   ~ 0
~CS0
$Comp
L Device:R_Small R36
U 1 1 5FF61197
P 7500 4200
F 0 "R36" H 7559 4246 50  0000 L CNN
F 1 "100k" H 7559 4155 50  0000 L CNN
F 2 "" H 7500 4200 50  0001 C CNN
F 3 "~" H 7500 4200 50  0001 C CNN
	1    7500 4200
	1    0    0    -1  
$EndComp
$Comp
L Device:R_Small R35
U 1 1 5FF741FA
P 7200 4200
F 0 "R35" H 7259 4246 50  0000 L CNN
F 1 "100k" H 7259 4155 50  0000 L CNN
F 2 "" H 7200 4200 50  0001 C CNN
F 3 "~" H 7200 4200 50  0001 C CNN
	1    7200 4200
	1    0    0    -1  
$EndComp
$Comp
L Device:R_Small R34
U 1 1 5FF74552
P 6900 4200
F 0 "R34" H 6959 4246 50  0000 L CNN
F 1 "100k" H 6959 4155 50  0000 L CNN
F 2 "" H 6900 4200 50  0001 C CNN
F 3 "~" H 6900 4200 50  0001 C CNN
	1    6900 4200
	1    0    0    -1  
$EndComp
Wire Wire Line
	7500 4300 7500 4500
Wire Wire Line
	7500 4500 7650 4500
Wire Wire Line
	7200 4300 7200 4600
Wire Wire Line
	7200 4600 7650 4600
Wire Wire Line
	6900 4300 6900 4700
Wire Wire Line
	6900 4700 7650 4700
Wire Wire Line
	6900 4700 6600 4700
Connection ~ 6900 4700
Text Label 6600 4700 0    50   ~ 0
~CS0
Wire Wire Line
	6900 4100 6900 4050
Wire Wire Line
	6900 4050 7200 4050
Wire Wire Line
	7500 4050 7500 4100
Wire Wire Line
	7200 4100 7200 4050
Connection ~ 7200 4050
Wire Wire Line
	7200 4050 7500 4050
$Comp
L power:+3.3V #PWR032
U 1 1 6000D822
P 7500 4000
F 0 "#PWR032" H 7500 3850 50  0001 C CNN
F 1 "+3.3V" H 7515 4173 50  0000 C CNN
F 2 "" H 7500 4000 50  0001 C CNN
F 3 "" H 7500 4000 50  0001 C CNN
	1    7500 4000
	1    0    0    -1  
$EndComp
$Comp
L Device:C_Small C10
U 1 1 60025132
P 8300 4050
F 0 "C10" V 8071 4050 50  0000 C CNN
F 1 "10nF" V 8162 4050 50  0000 C CNN
F 2 "" H 8300 4050 50  0001 C CNN
F 3 "~" H 8300 4050 50  0001 C CNN
	1    8300 4050
	0    1    1    0   
$EndComp
Wire Wire Line
	8050 4050 8200 4050
Wire Wire Line
	8400 4050 8550 4050
$Comp
L power:GND #PWR037
U 1 1 6002513B
P 8550 4050
F 0 "#PWR037" H 8550 3800 50  0001 C CNN
F 1 "GND" H 8555 3877 50  0000 C CNN
F 2 "" H 8550 4050 50  0001 C CNN
F 3 "" H 8550 4050 50  0001 C CNN
	1    8550 4050
	0    -1   -1   0   
$EndComp
$Comp
L power:+3.3V #PWR035
U 1 1 60025141
P 8050 4000
F 0 "#PWR035" H 8050 3850 50  0001 C CNN
F 1 "+3.3V" H 8065 4173 50  0000 C CNN
F 2 "" H 8050 4000 50  0001 C CNN
F 3 "" H 8050 4000 50  0001 C CNN
	1    8050 4000
	1    0    0    -1  
$EndComp
Connection ~ 8050 4050
Wire Wire Line
	8050 4050 8050 4000
Wire Wire Line
	8050 4050 8050 4300
$Comp
L power:GND #PWR036
U 1 1 600E81B6
P 8050 4900
F 0 "#PWR036" H 8050 4650 50  0001 C CNN
F 1 "GND" H 8055 4727 50  0000 C CNN
F 2 "" H 8050 4900 50  0001 C CNN
F 3 "" H 8050 4900 50  0001 C CNN
	1    8050 4900
	1    0    0    -1  
$EndComp
Wire Wire Line
	7300 1650 7800 1650
Connection ~ 7300 1650
Wire Wire Line
	7800 1650 8300 1650
Connection ~ 7800 1650
Wire Wire Line
	8300 1650 8300 1900
$Comp
L Device:CP_Small C3
U 1 1 5F6848EC
P 7600 1300
F 0 "C3" V 7500 1300 50  0000 C CNN
F 1 "220uF" V 7700 1300 50  0000 C CNN
F 2 "" H 7600 1300 50  0001 C CNN
F 3 "~" H 7600 1300 50  0001 C CNN
	1    7600 1300
	1    0    0    -1  
$EndComp
$Comp
L Regulator_Linear:LM1117-3.3 U3
U 1 1 6038E1AB
P 4950 6950
F 0 "U3" H 4950 7192 50  0000 C CNN
F 1 "LM1117-3.3" H 4950 7101 50  0000 C CNN
F 2 "" H 4950 6950 50  0001 C CNN
F 3 "http://www.ti.com/lit/ds/symlink/lm1117.pdf" H 4950 6950 50  0001 C CNN
	1    4950 6950
	1    0    0    -1  
$EndComp
$Comp
L Device:CP_Small C5
U 1 1 6038FB23
P 3950 7200
F 0 "C5" H 4038 7246 50  0000 L CNN
F 1 "220uF" H 4038 7155 50  0000 L CNN
F 2 "" H 3950 7200 50  0001 C CNN
F 3 "~" H 3950 7200 50  0001 C CNN
	1    3950 7200
	1    0    0    -1  
$EndComp
$Comp
L Device:C_Small C7
U 1 1 6039141E
P 5400 7200
F 0 "C7" H 5492 7246 50  0000 L CNN
F 1 "10uF" H 5492 7155 50  0000 L CNN
F 2 "" H 5400 7200 50  0001 C CNN
F 3 "~" H 5400 7200 50  0001 C CNN
	1    5400 7200
	1    0    0    -1  
$EndComp
$Comp
L Device:C_Small C6
U 1 1 60391AEB
P 4400 7200
F 0 "C6" H 4492 7246 50  0000 L CNN
F 1 "10uF" H 4492 7155 50  0000 L CNN
F 2 "" H 4400 7200 50  0001 C CNN
F 3 "~" H 4400 7200 50  0001 C CNN
	1    4400 7200
	1    0    0    -1  
$EndComp
$Comp
L power:GND #PWR026
U 1 1 603A63C7
P 4950 7400
F 0 "#PWR026" H 4950 7150 50  0001 C CNN
F 1 "GND" H 4955 7227 50  0000 C CNN
F 2 "" H 4950 7400 50  0001 C CNN
F 3 "" H 4950 7400 50  0001 C CNN
	1    4950 7400
	1    0    0    -1  
$EndComp
$Comp
L power:GND #PWR023
U 1 1 603A652B
P 4400 7400
F 0 "#PWR023" H 4400 7150 50  0001 C CNN
F 1 "GND" H 4405 7227 50  0000 C CNN
F 2 "" H 4400 7400 50  0001 C CNN
F 3 "" H 4400 7400 50  0001 C CNN
	1    4400 7400
	1    0    0    -1  
$EndComp
$Comp
L power:GND #PWR019
U 1 1 603A68D0
P 3950 7400
F 0 "#PWR019" H 3950 7150 50  0001 C CNN
F 1 "GND" H 3955 7227 50  0000 C CNN
F 2 "" H 3950 7400 50  0001 C CNN
F 3 "" H 3950 7400 50  0001 C CNN
	1    3950 7400
	1    0    0    -1  
$EndComp
$Comp
L power:GND #PWR029
U 1 1 603A6B22
P 5400 7400
F 0 "#PWR029" H 5400 7150 50  0001 C CNN
F 1 "GND" H 5405 7227 50  0000 C CNN
F 2 "" H 5400 7400 50  0001 C CNN
F 3 "" H 5400 7400 50  0001 C CNN
	1    5400 7400
	1    0    0    -1  
$EndComp
Wire Wire Line
	3950 7300 3950 7400
Wire Wire Line
	4400 7300 4400 7400
Wire Wire Line
	4950 7250 4950 7400
Wire Wire Line
	5400 7300 5400 7400
Wire Wire Line
	5400 7100 5400 6950
Connection ~ 5400 6950
Wire Wire Line
	4400 7100 4400 6950
Wire Wire Line
	4400 6950 4650 6950
Wire Wire Line
	3950 7100 3950 6950
Wire Wire Line
	3950 6950 4400 6950
Connection ~ 4400 6950
Connection ~ 3950 6950
$Comp
L Device:C_Small C8
U 1 1 604B932A
P 6100 7200
F 0 "C8" H 6192 7246 50  0000 L CNN
F 1 "22pF" H 6192 7155 50  0000 L CNN
F 2 "" H 6100 7200 50  0001 C CNN
F 3 "~" H 6100 7200 50  0001 C CNN
	1    6100 7200
	1    0    0    -1  
$EndComp
$Comp
L Device:C_Small C9
U 1 1 604B94BD
P 6500 7200
F 0 "C9" H 6592 7246 50  0000 L CNN
F 1 "22pF" H 6592 7155 50  0000 L CNN
F 2 "" H 6500 7200 50  0001 C CNN
F 3 "~" H 6500 7200 50  0001 C CNN
	1    6500 7200
	1    0    0    -1  
$EndComp
$Comp
L Device:Crystal Y1
U 1 1 604BE7D7
P 6300 6850
F 0 "Y1" H 6300 7118 50  0000 C CNN
F 1 "32.768" H 6300 7027 50  0000 C CNN
F 2 "" H 6300 6850 50  0001 C CNN
F 3 "~" H 6300 6850 50  0001 C CNN
	1    6300 6850
	1    0    0    -1  
$EndComp
$Comp
L power:GND #PWR030
U 1 1 604D4405
P 6100 7400
F 0 "#PWR030" H 6100 7150 50  0001 C CNN
F 1 "GND" H 6105 7227 50  0000 C CNN
F 2 "" H 6100 7400 50  0001 C CNN
F 3 "" H 6100 7400 50  0001 C CNN
	1    6100 7400
	1    0    0    -1  
$EndComp
$Comp
L power:GND #PWR031
U 1 1 604D490F
P 6500 7400
F 0 "#PWR031" H 6500 7150 50  0001 C CNN
F 1 "GND" H 6505 7227 50  0000 C CNN
F 2 "" H 6500 7400 50  0001 C CNN
F 3 "" H 6500 7400 50  0001 C CNN
	1    6500 7400
	1    0    0    -1  
$EndComp
Wire Wire Line
	6100 7300 6100 7400
Wire Wire Line
	6500 7300 6500 7400
Wire Wire Line
	6450 6850 6500 6850
Wire Wire Line
	6500 6850 6500 7100
Wire Wire Line
	6150 6850 6100 6850
Wire Wire Line
	6100 6850 6100 7100
Wire Wire Line
	6100 6850 6100 6250
Connection ~ 6100 6850
Connection ~ 6500 6850
Text Label 6100 6250 3    50   ~ 0
XIN32
Text Label 6500 6250 3    50   ~ 0
XOUT32
Wire Wire Line
	6500 6250 6500 6850
NoConn ~ 9550 4950
Wire Wire Line
	750  1150 750  800 
Wire Wire Line
	4200 1750 4200 3950
Wire Wire Line
	5250 1650 5250 3550
Wire Wire Line
	5300 1550 5300 3250
Wire Wire Line
	5350 1450 5350 2950
Wire Wire Line
	5400 1350 5400 2650
Wire Wire Line
	5450 1250 5450 2350
Wire Wire Line
	5500 1150 5500 2050
Wire Wire Line
	2450 1250 2450 2350
Wire Wire Line
	3450 1250 3450 2350
Wire Wire Line
	3500 1150 3500 2050
Wire Wire Line
	4450 1250 4450 2350
Wire Wire Line
	4500 1150 4500 2050
Wire Wire Line
	1550 1550 2300 1550
Wire Wire Line
	1550 1450 2350 1450
Wire Wire Line
	1550 1350 2400 1350
Wire Wire Line
	1550 1250 2450 1250
Wire Wire Line
	1550 1150 2500 1150
Wire Wire Line
	2300 1550 3300 1550
Wire Wire Line
	2350 1450 3350 1450
Wire Wire Line
	2400 1350 3400 1350
Wire Wire Line
	2450 1250 3450 1250
Wire Wire Line
	2500 1150 3500 1150
Wire Wire Line
	3500 1150 4500 1150
Wire Wire Line
	3450 1250 4450 1250
Wire Wire Line
	3400 1350 4400 1350
Wire Wire Line
	3350 1450 4350 1450
Wire Wire Line
	3300 1550 4300 1550
Wire Wire Line
	4350 1450 5350 1450
Wire Wire Line
	4400 1350 5400 1350
Wire Wire Line
	4450 1250 5450 1250
Wire Wire Line
	4500 1150 5500 1150
Wire Wire Line
	6100 3250 6100 3550
$Comp
L Connector_Generic:Conn_01x04 J3
U 1 1 606A60A6
P 8150 5850
F 0 "J3" H 8230 5842 50  0000 L CNN
F 1 "DISPLAY" H 8230 5751 50  0000 L CNN
F 2 "" H 8150 5850 50  0001 C CNN
F 3 "~" H 8150 5850 50  0001 C CNN
	1    8150 5850
	1    0    0    -1  
$EndComp
Wire Wire Line
	7950 5750 7700 5750
Wire Wire Line
	7950 5850 7650 5850
Wire Wire Line
	7950 5950 7700 5950
Wire Wire Line
	7950 6050 7700 6050
Text Label 7700 5950 0    50   ~ 0
SDA
Text Label 7700 6050 0    50   ~ 0
SCL
$Comp
L power:GND #PWR034
U 1 1 60709A9B
P 7650 5850
F 0 "#PWR034" H 7650 5600 50  0001 C CNN
F 1 "GND" V 7655 5722 50  0000 R CNN
F 2 "" H 7650 5850 50  0001 C CNN
F 3 "" H 7650 5850 50  0001 C CNN
	1    7650 5850
	0    1    1    0   
$EndComp
$Comp
L Connector:Conn_ARM_JTAG_SWD_10 J2
U 1 1 60755A61
P 4500 5550
F 0 "J2" H 4057 5596 50  0000 R CNN
F 1 "JTAG" H 4057 5505 50  0000 R CNN
F 2 "" H 4500 5550 50  0001 C CNN
F 3 "http://infocenter.arm.com/help/topic/com.arm.doc.ddi0314h/DDI0314H_coresight_components_trm.pdf" V 4150 4300 50  0001 C CNN
	1    4500 5550
	1    0    0    -1  
$EndComp
$Comp
L Device:C_Small C11
U 1 1 6075758C
P 9500 5850
F 0 "C11" H 9592 5896 50  0000 L CNN
F 1 "100nF" H 9592 5805 50  0000 L CNN
F 2 "" H 9500 5850 50  0001 C CNN
F 3 "~" H 9500 5850 50  0001 C CNN
	1    9500 5850
	1    0    0    -1  
$EndComp
$Comp
L power:GND #PWR038
U 1 1 607587C6
P 9500 5950
F 0 "#PWR038" H 9500 5700 50  0001 C CNN
F 1 "GND" H 9505 5777 50  0000 C CNN
F 2 "" H 9500 5950 50  0001 C CNN
F 3 "" H 9500 5950 50  0001 C CNN
	1    9500 5950
	1    0    0    -1  
$EndComp
Wire Wire Line
	9500 5750 9500 5550
$Comp
L power:+3.3V #PWR027
U 1 1 60771F58
P 5300 4950
F 0 "#PWR027" H 5300 4800 50  0001 C CNN
F 1 "+3.3V" H 5315 5123 50  0000 C CNN
F 2 "" H 5300 4950 50  0001 C CNN
F 3 "" H 5300 4950 50  0001 C CNN
	1    5300 4950
	1    0    0    -1  
$EndComp
$Comp
L Device:R_Small R32
U 1 1 607733F1
P 5300 5050
F 0 "R32" H 5359 5096 50  0000 L CNN
F 1 "10k" H 5359 5005 50  0000 L CNN
F 2 "" H 5300 5050 50  0001 C CNN
F 3 "~" H 5300 5050 50  0001 C CNN
	1    5300 5050
	1    0    0    -1  
$EndComp
$Comp
L Device:R_Small R33
U 1 1 6078B421
P 5600 5250
F 0 "R33" V 5404 5250 50  0000 C CNN
F 1 "330" V 5495 5250 50  0000 C CNN
F 2 "" H 5600 5250 50  0001 C CNN
F 3 "~" H 5600 5250 50  0001 C CNN
	1    5600 5250
	0    1    1    0   
$EndComp
Wire Wire Line
	5300 5150 5300 5250
Wire Wire Line
	9500 5550 9200 5550
Wire Wire Line
	5000 5250 5300 5250
Text Label 6100 5250 2    50   ~ 0
~RESET
Text Label 5300 5450 2    50   ~ 0
SWCLK
Text Label 5300 5550 2    50   ~ 0
SWDIO
Wire Wire Line
	5000 5550 5300 5550
Wire Wire Line
	5300 5450 5000 5450
$Comp
L power:GND #PWR024
U 1 1 60850FA0
P 4450 6250
F 0 "#PWR024" H 4450 6000 50  0001 C CNN
F 1 "GND" H 4455 6077 50  0000 C CNN
F 2 "" H 4450 6250 50  0001 C CNN
F 3 "" H 4450 6250 50  0001 C CNN
	1    4450 6250
	1    0    0    -1  
$EndComp
Wire Wire Line
	4400 6150 4400 6200
Wire Wire Line
	4400 6200 4450 6200
Wire Wire Line
	4500 6200 4500 6150
Wire Wire Line
	4450 6200 4450 6250
Connection ~ 4450 6200
Wire Wire Line
	4450 6200 4500 6200
NoConn ~ 5000 5650
NoConn ~ 5000 5750
$Comp
L power:+3.3V #PWR025
U 1 1 608B750D
P 4500 4950
F 0 "#PWR025" H 4500 4800 50  0001 C CNN
F 1 "+3.3V" H 4515 5123 50  0000 C CNN
F 2 "" H 4500 4950 50  0001 C CNN
F 3 "" H 4500 4950 50  0001 C CNN
	1    4500 4950
	1    0    0    -1  
$EndComp
$Comp
L power:GND #PWR039
U 1 1 60A23509
P 9850 1650
F 0 "#PWR039" H 9850 1400 50  0001 C CNN
F 1 "GND" H 9855 1477 50  0000 C CNN
F 2 "" H 9850 1650 50  0001 C CNN
F 3 "" H 9850 1650 50  0001 C CNN
	1    9850 1650
	1    0    0    -1  
$EndComp
$Comp
L power:GND #PWR042
U 1 1 60A23216
P 10250 1650
F 0 "#PWR042" H 10250 1400 50  0001 C CNN
F 1 "GND" H 10255 1477 50  0000 C CNN
F 2 "" H 10250 1650 50  0001 C CNN
F 3 "" H 10250 1650 50  0001 C CNN
	1    10250 1650
	1    0    0    -1  
$EndComp
$Comp
L power:GND #PWR044
U 1 1 60A2281E
P 10650 1650
F 0 "#PWR044" H 10650 1400 50  0001 C CNN
F 1 "GND" H 10655 1477 50  0000 C CNN
F 2 "" H 10650 1650 50  0001 C CNN
F 3 "" H 10650 1650 50  0001 C CNN
	1    10650 1650
	1    0    0    -1  
$EndComp
$Comp
L Device:C_Small C14
U 1 1 60A07111
P 10650 1550
F 0 "C14" H 10742 1588 50  0000 L CNN
F 1 "100nF" H 10742 1505 39  0000 L CNN
F 2 "" H 10650 1550 50  0001 C CNN
F 3 "~" H 10650 1550 50  0001 C CNN
	1    10650 1550
	1    0    0    -1  
$EndComp
$Comp
L Device:C_Small C12
U 1 1 609D2FF3
P 9850 1550
F 0 "C12" H 9750 1600 50  0000 R CNN
F 1 "1uF" H 9750 1500 39  0000 R CNN
F 2 "" H 9850 1550 50  0001 C CNN
F 3 "~" H 9850 1550 50  0001 C CNN
	1    9850 1550
	1    0    0    -1  
$EndComp
Wire Wire Line
	9850 1450 9950 1450
Wire Wire Line
	9950 1450 9950 1950
Wire Wire Line
	10250 1450 10150 1450
Wire Wire Line
	10150 1450 10150 1950
$Comp
L Device:C_Small C13
U 1 1 60A06D27
P 10250 1550
F 0 "C13" H 10342 1596 50  0000 L CNN
F 1 "100nF" H 10342 1505 39  0000 L CNN
F 2 "" H 10250 1550 50  0001 C CNN
F 3 "~" H 10250 1550 50  0001 C CNN
	1    10250 1550
	1    0    0    -1  
$EndComp
Wire Wire Line
	10550 1450 10650 1450
Wire Wire Line
	10550 1450 10550 1300
Connection ~ 10550 1450
Wire Wire Line
	10150 1450 10150 1300
Connection ~ 10150 1450
$Comp
L power:+3.3V #PWR043
U 1 1 60B52DD5
P 10550 1300
F 0 "#PWR043" H 10550 1150 50  0001 C CNN
F 1 "+3.3V" H 10565 1473 50  0000 C CNN
F 2 "" H 10550 1300 50  0001 C CNN
F 3 "" H 10550 1300 50  0001 C CNN
	1    10550 1300
	1    0    0    -1  
$EndComp
$Comp
L power:+3.3V #PWR041
U 1 1 60B5319A
P 10150 1300
F 0 "#PWR041" H 10150 1150 50  0001 C CNN
F 1 "+3.3V" H 10165 1473 50  0000 C CNN
F 2 "" H 10150 1300 50  0001 C CNN
F 3 "" H 10150 1300 50  0001 C CNN
	1    10150 1300
	1    0    0    -1  
$EndComp
Wire Wire Line
	10550 1450 10550 1950
Connection ~ 9500 5550
Wire Wire Line
	5500 5250 5300 5250
Connection ~ 5300 5250
Wire Wire Line
	5700 5250 6100 5250
Wire Notes Line
	500  4550 6400 4550
Wire Notes Line
	6400 3600 9000 3600
Wire Notes Line
	9000 500  9000 6500
Wire Notes Line
	6400 5200 9000 5200
Wire Notes Line
	6400 500  6400 5200
Wire Notes Line
	6950 6500 6950 5200
Wire Notes Line
	5750 7800 5750 6050
Wire Notes Line
	5750 6050 6950 6050
Wire Notes Line
	3550 6600 5750 6600
Wire Notes Line
	3550 4550 3550 7800
Wire Wire Line
	2950 5850 3450 5850
Connection ~ 2950 5850
Text Notes 3600 6700 0    50   ~ 0
PWR MANAGEMENT
Text Notes 3600 4650 0    50   ~ 0
JTAG
Text Notes 500  4650 0    50   ~ 0
USB
Text Notes 3250 600  0    50   ~ 0
KEYBOARD
Text Notes 7450 600  0    50   ~ 0
KEY LIGHTNING
Text Notes 9800 600  0    50   ~ 0
MICROCONTROLLER
Text Notes 6450 3700 0    50   ~ 0
EEPROM
Text Notes 6450 3800 0    50   ~ 0
PRESET STORAGE
Connection ~ 7500 4050
Wire Wire Line
	7500 4000 7500 4050
Text Notes 7000 5300 0    50   ~ 0
DISPLAY HEADER
Text Notes 5800 6150 0    50   ~ 0
CLOCK
Wire Wire Line
	5250 6950 5400 6950
Text Label 2150 6450 3    50   ~ 0
VUSB
Text Label 3450 4850 2    50   ~ 0
VUSB
Text Label 3700 6950 0    50   ~ 0
VUSB
Wire Wire Line
	3700 6950 3950 6950
Wire Wire Line
	1650 4850 2350 4850
$Comp
L power:+3.3V #PWR028
U 1 1 6040D3E1
P 5400 6950
F 0 "#PWR028" H 5400 6800 50  0001 C CNN
F 1 "+3.3V" H 5415 7123 50  0000 C CNN
F 2 "" H 5400 6950 50  0001 C CNN
F 3 "" H 5400 6950 50  0001 C CNN
	1    5400 6950
	1    0    0    -1  
$EndComp
Text Label 7700 5750 0    50   ~ 0
VUSB
Text Label 6550 900  0    50   ~ 0
VUSB
Wire Wire Line
	2500 4850 3450 4850
Wire Wire Line
	2350 4850 2500 4850
Connection ~ 2500 4850
$Comp
L power:PWR_FLAG #FLG01
U 1 1 5F7E6340
P 2500 4850
F 0 "#FLG01" H 2500 4925 50  0001 C CNN
F 1 "PWR_FLAG" H 2500 5023 50  0001 C CNN
F 2 "" H 2500 4850 50  0001 C CNN
F 3 "~" H 2500 4850 50  0001 C CNN
	1    2500 4850
	1    0    0    -1  
$EndComp
$Comp
L power:PWR_FLAG #FLG0101
U 1 1 60FDCDD5
P 1150 7450
F 0 "#FLG0101" H 1150 7525 50  0001 C CNN
F 1 "PWR_FLAG" H 1150 7623 50  0001 C CNN
F 2 "" H 1150 7450 50  0001 C CNN
F 3 "~" H 1150 7450 50  0001 C CNN
	1    1150 7450
	0    1    1    0   
$EndComp
Wire Wire Line
	1050 7450 1150 7450
$Comp
L Connector:USB_C_Receptacle J1
U 1 1 5F7E93CE
P 1050 5850
F 0 "J1" H 750 6850 50  0000 C CNN
F 1 "USB_C_Receptacle" H 1157 7026 50  0001 C CNN
F 2 "" H 1200 5850 50  0001 C CNN
F 3 "https://www.usb.org/sites/default/files/documents/usb_type-c.zip" H 1200 5850 50  0001 C CNN
	1    1050 5850
	1    0    0    -1  
$EndComp
Wire Wire Line
	1050 7450 1050 7500
Connection ~ 1050 7450
$Comp
L Graphic:Logo_Open_Hardware_Small #LOGO1
U 1 1 610A27F9
P 10850 6850
F 0 "#LOGO1" H 10850 7125 50  0001 C CNN
F 1 "Logo_Open_Hardware_Small" H 10850 6625 50  0001 C CNN
F 2 "" H 10850 6850 50  0001 C CNN
F 3 "~" H 10850 6850 50  0001 C CNN
	1    10850 6850
	1    0    0    -1  
$EndComp
$Comp
L Mechanical:MountingHole H2
U 1 1 610A47ED
P 750 4300
F 0 "H2" H 850 4300 50  0000 L CNN
F 1 "MountingHole" H 850 4255 50  0001 L CNN
F 2 "" H 750 4300 50  0001 C CNN
F 3 "~" H 750 4300 50  0001 C CNN
	1    750  4300
	1    0    0    -1  
$EndComp
$Comp
L Mechanical:MountingHole H3
U 1 1 610A4BC1
P 1100 4100
F 0 "H3" H 1200 4100 50  0000 L CNN
F 1 "MountingHole" H 1200 4055 50  0001 L CNN
F 2 "" H 1100 4100 50  0001 C CNN
F 3 "~" H 1100 4100 50  0001 C CNN
	1    1100 4100
	1    0    0    -1  
$EndComp
$Comp
L Mechanical:MountingHole H4
U 1 1 610A4CD1
P 1100 4300
F 0 "H4" H 1200 4300 50  0000 L CNN
F 1 "MountingHole" H 1200 4255 50  0001 L CNN
F 2 "" H 1100 4300 50  0001 C CNN
F 3 "~" H 1100 4300 50  0001 C CNN
	1    1100 4300
	1    0    0    -1  
$EndComp
$Comp
L Mechanical:MountingHole H1
U 1 1 610A4EBC
P 750 4100
F 0 "H1" H 850 4100 50  0000 L CNN
F 1 "MountingHole" H 850 4055 50  0001 L CNN
F 2 "" H 750 4100 50  0001 C CNN
F 3 "~" H 750 4100 50  0001 C CNN
	1    750  4100
	1    0    0    -1  
$EndComp
Wire Notes Line
	500  3750 1450 3750
Wire Notes Line
	1450 3750 1450 4550
Text Notes 500  3850 0    50   ~ 0
MOUNTINGHOLES
$Comp
L power:GND #PWR0101
U 1 1 612201F8
P 7300 1400
F 0 "#PWR0101" H 7300 1150 50  0001 C CNN
F 1 "GND" H 7305 1227 50  0000 C CNN
F 2 "" H 7300 1400 50  0001 C CNN
F 3 "" H 7300 1400 50  0001 C CNN
	1    7300 1400
	1    0    0    -1  
$EndComp
$Comp
L Device:R_Small R37
U 1 1 612722BA
P 7950 900
F 0 "R37" V 8146 900 50  0000 C CNN
F 1 "100k" V 8055 900 50  0000 C CNN
F 2 "" H 7950 900 50  0001 C CNN
F 3 "~" H 7950 900 50  0001 C CNN
	1    7950 900 
	0    -1   -1   0   
$EndComp
$Comp
L Transistor_FET:IRF7309IPBF Q1
U 1 1 613EE379
P 7200 1200
F 0 "Q1" H 7200 1450 50  0000 R CNN
F 1 "IRF7309IPBF" H 7200 1350 50  0000 R CNN
F 2 "Package_SO:SOIC-8_3.9x4.9mm_P1.27mm" H 7400 1125 50  0001 L CNN
F 3 "http://www.irf.com/product-info/datasheets/data/irf7309ipbf.pdf" H 7300 1200 50  0001 L CNN
	1    7200 1200
	1    0    0    -1  
$EndComp
Wire Wire Line
	6550 1200 6850 1200
Wire Wire Line
	7900 1300 7800 1300
Wire Wire Line
	7800 1300 7800 1100
Wire Wire Line
	7300 1000 8100 1000
Wire Wire Line
	7850 900  7800 900 
Connection ~ 7800 900 
Wire Wire Line
	8050 900  8100 900 
Wire Wire Line
	8100 900  8100 1000
Connection ~ 8100 1000
$Comp
L power:GND #PWR0102
U 1 1 616B8556
P 7600 1400
F 0 "#PWR0102" H 7600 1150 50  0001 C CNN
F 1 "GND" H 7605 1227 50  0000 C CNN
F 2 "" H 7600 1400 50  0001 C CNN
F 3 "" H 7600 1400 50  0001 C CNN
	1    7600 1400
	1    0    0    -1  
$EndComp
Wire Wire Line
	7600 1200 7600 1100
Connection ~ 7800 1100
Wire Wire Line
	7800 1100 7800 900 
Wire Wire Line
	8300 1300 8300 1650
Connection ~ 8300 1650
Wire Wire Line
	7600 1100 7800 1100
$Comp
L Device:R_Small R38
U 1 1 61786362
P 6850 1300
F 0 "R38" H 6909 1346 50  0000 L CNN
F 1 "100k" H 6909 1255 50  0000 L CNN
F 2 "" H 6850 1300 50  0001 C CNN
F 3 "~" H 6850 1300 50  0001 C CNN
	1    6850 1300
	1    0    0    -1  
$EndComp
Connection ~ 6850 1200
Wire Wire Line
	6850 1200 7000 1200
$Comp
L power:GND #PWR04
U 1 1 61786A99
P 6850 1400
F 0 "#PWR04" H 6850 1150 50  0001 C CNN
F 1 "GND" H 6855 1227 50  0000 C CNN
F 2 "" H 6850 1400 50  0001 C CNN
F 3 "" H 6850 1400 50  0001 C CNN
	1    6850 1400
	1    0    0    -1  
$EndComp
Wire Wire Line
	7800 900  6550 900 
$Comp
L Transistor_FET:IRF7309IPBF Q1
U 2 1 613F081D
P 8100 1200
F 0 "Q1" V 7950 1300 50  0000 L CNN
F 1 "IRF7309IPBF" V 8050 1300 50  0000 L CNN
F 2 "Package_SO:SOIC-8_3.9x4.9mm_P1.27mm" H 8300 1125 50  0001 L CNN
F 3 "http://www.irf.com/product-info/datasheets/data/irf7309ipbf.pdf" H 8200 1200 50  0001 L CNN
	2    8100 1200
	0    1    1    0   
$EndComp
$EndSCHEMATC
